0111111111111111
0111111111111111
0111111111111111
0111111111111111
0111111111111111
0111111111111111
0111111111111111
0111111111111111
0111111111111111
0111111111111111
0111111111111111
0111111111111111
0111111111111111
0111111111111111
0111111111111111
0111111111111111
0111111111111111
0111111111111111
0111111111111111
0111111111111111
0111111111111111
0111111111111111
0111111111111111
0111111111111111
0111111111111111
0111111111111111
0111111111111111
0111111111111111
0111111111111111
0111111111111111
0111111111111111
0111111111111111
0111111111111111
0111111111111111
0111111111111111
0111111111111111
0111111111111111
0111111111111111
0111111111111111
0111111111111111
0111111111111111
0111111111111111
0111111111111111
0111111111111111
0111111111111111
0111111111111111
0111111111111111
0111111111111111
0111111111111111
0111111111111111
0111111111111111
0111111111111111
0111111111111111
0111111111111111
0111111111111111
0111111111111111
0111111111111111
0111111111111111
0111111111111111
0111111111111111
0111111111111111
0111111111111111
0111111111111111
0111111111111111
0111111111111111
0111111111111111
0111111111111111
0111111111111111
0111111111111111
0111111111111111
0111111111111111
0111111111111111
0111111111111111
0111111111111111
0111111111111111
0111111111111111
0111111111111111
0111111111111111
0111111111111111
0111111111111111
0111111111111111
0111111111111111
0111111111111111
0111111111111111
0111111111111111
0111111111111111
0111111111111111
0111111111111111
0111111111111111
0111111111111111
0111111111111111
0111111111111111
0111111111111111
0111111111111111
0111111111111111
0111111111111111
0111111111111111
0111111111111111
0111111111111111
0111111111111111
0111111111111111
0111111111111111
0111111111111111
0111111111111111
0111111111111111
0111111111111111
0111111111111111
0111111111111111
0111111111111111
0111111111111111
0111111111111111
0111111111111111
0111111111111111
0111111111111111
0111111111111111
0111111111111111
0111111111111111
0111111111111111
0111111111111111
0111111111111111
0111111111111111
0111111111111111
0111111111111111
0111111111111111
0111111111111111
0111111111111111
0111111111111111
0111111111111111
0111111111111111
0111111111111111
0111111111111111
0111111111111111
0111111111111111
0111111111111111
0111111111111111
0111111111111111
0111111111111111
0111111111111111
0111111111111111
0111111111111111
0111111111111111
0111111111111111
0111111111111111
0111111111111111
0111111111111111
0111111111111111
0111111111111111
0111111111111111
0111111111111111
0111111111111111
0111111111111111
0111111111111111
0111111111111111
0111111111111111
0111111111111111
0111111111111111
0111111111111111
0111111111111111
0111111111111111
0111111111111111
0111111111111111
0111111111111111
0111111111111111
0111111111111111
0111111111111111
0111111111111111
0111111111111111
0111111111111111
0111111111111111
0111111111111111
0111111111111111
0111111111111111
0111111111111111
0111111111111111
0111111111111111
0111111111111111
0111111111111111
0111111111111111
0111111111111111
0111111111111111
0111111111111111
0111111111111111
0111111111111111
0111111111111111
0111111111111111
0111111111111111
0111111111111111
0111111111111111
0111111111111111
0111111111111111
0111111111111111
0111111111111111
0111111111111111
0111111111111111
0111111111111111
0111111111111111
0111111111111111
0111111111111111
0111111111111111
0111111111111111
0111111111111111
0111111111111111
0111111111111111
0111111111111111
0111111111111111
0111111111111111
0111111111111111
0111111111111111
0111111111111111
0111111111111111
0111111111111111
0111111111111111
0111111111111111
0111111111111111
0111111111111111
0111111111111111
0111111111111111
0111111111111111
0111111111111111
0111111111111111
0111111111111111
0111111111111111
0111111111111111
0111111111111111
0111111111111111
0111111111111111
0111111111111111
0111111111111111
0111111111111111
0111111111111111
0111111111111111
0111111111111111
0111111111111111
0111111111111111
0111111111111111
0111111111111111
0111111111111111
0111111111111111
0111111111111111
0111111111111111
0111111111111111
0111111111111111
0111111111111111
0111111111111111
0111111111111111
0111111111111111
0111111111111111
0111111111111111
0111111111111111
0111111111111111
0111111111111111
0111111111111111
0111111111111111
0111111111111111
0111111111111111
0111111111111111
0111111111111111
0111111111111111
0111111111111111
0111111111111111
0111111111111111
0111111111111111
0111111111111111
0111111111111111
0111111111111111
0111111111111111
0111111111111111
0111111111111111
0111111111111111
0111111111111111
0111111111111111
0111111111111111
0111111111111111
0111111111111111
0111111111111111
0111111111111111
0111111111111111
0111111111111111
0111111111111111
0111111111111111
0111111111111111
0111111111111111
0111111111111111
0111111111111111
0111111111111111
0111111111111111
0111111111111111
0111111111111111
0111111111111111
0111111111111111
0111111111111111
0111111111111111
0111111111111111
0111111111111111
0111111111111111
0111111111111111
0111111111111111
0111111111111111
0111111111111111
0111111111111111
0111111111111111
0111111111111111
0111111111111111
0111111111111111
0111111111111111
0111111111111111
0111111111111111
0111111111111111
0111111111111111
0111111111111111
0111111111111111
0111111111111111
0111111111111111
0111111111111111
0111111111111111
0111111111111111
0111111111111111
0111111111111111
0111111111111111
0111111111111111
0111111111111111
0111111111111111
0111111111111111
0111111111111111
0111111111111111
0111111111111111
0111111111111111
0111111111111111
0111111111111111
0111111111111111
0111111111111111
0111111111111111
0111111111111111
0111111111111111
0111111111111111
0111111111111111
0111111111111111
0111111111111111
0111111111111111
0111111111111111
0111111111111111
0111111111111111
0111111111111111
0111111111111111
0111111111111111
0111111111111111
0111111111111111
0111111111111111
0111111111111111
0111111111111111
0111111111111111
0111111111111111
0111111111111111
0111111111111111
0111111111111111
0111111111111111
0111111111111111
0111111111111111
0111111111111111
0111111111111111
0111111111111111
0111111111111111
0111111111111111
0111111111111111
0111111111111111
0111111010101011
0111110010110100
0111101011000011
0111100011011001
0111011011110100
0111010100010100
0111001100111011
0111000101100111
0110111110011001
0110110111010001
0110110000001110
0110101001010000
0110100010011000
0110011011100110
0110010100111001
0110001110010001
0110000111101110
0110000001010001
0101111010111000
0101110100100101
0101101110010111
0101101000001101
0101100010001001
0101011100001010
0101010110001111
0101010000011001
0101001010101000
0101000100111100
0100111111010100
0100111001110001
0100110100010010
0100101110111000
0100101001100011
0100100100010010
0100011111000101
0100011001111100
0100010100111000
0100001111111000
0100001010111100
0100000110000101
0100000001010001
0011111100100010
0011110111110111
0011110011001111
0011101110101100
0011101010001100
0011100101110000
0011100001011001
0011011101000100
0011011000110100
0011010100100111
0011010000011110
0011001100011001
0011001000010111
0011000100011001
0011000000011110
0010111100100111
0010111000110011
0010110101000011
0010110001010110
0010101101101100
0010101010000101
0010100110100010
0010100011000010
0010011111100101
0010011100001011
0010011000110101
0010010101100001
0010010010010001
0010001111000011
0010001011111001
0010001000110001
0010000101101100
0010000010101010
0001111111101011
0001111100101111
0001111001110110
0001110110111111
0001110100001011
0001110001011010
0001101110101011
0001101011111111
0001101001010101
0001100110101110
0001100100001010
0001100001101000
0001011111001001
0001011100101100
0001011010010001
0001010111111001
0001010101100011
0001010011001111
0001010000111110
0001001110101111
0001001100100010
0001001010011000
0001001000001111
0001000110001001
0001000100000101
0001000010000011
0001000000000011
0000111110000101
0000111100001001
0000111010001111
0000111000010111
0000110110100001
0000110100101101
0000110010111011
0000110001001011
0000101111011100
0000101101110000
0000101100000101
0000101010011100
0000101000110101
0000100111001111
0000100101101100
0000100100001001
0000100010101001
0000100001001010
0000011111101101
0000011110010001
0000011100110111
0000011011011111
0000011010001000
0000011000110011
0000010111011111
0000010110001100
0000010100111100
0000010011101100
0000010010011110
0000010001010001
0000010000000110
0000001110111100
0000001101110011
0000001100101100
0000001011100110
0000001010100001
0000001001011110
0000001000011100
0000000111011011
0000000110011011
0000000101011100
0000000100011111
0000000011100011
0000000010100111
0000000001101101
0000000000110101
1111111111111101
1111111111000110
1111111110010000
1111111101011100
1111111100101000
1111111011110110
1111111011000100
1111111010010011
1111111001100100
1111111000110101
1111111000000111
1111110111011011
1111110110101111
1111110110000100
1111110101011010
1111110100110000
1111110100001000
1111110011100000
1111110010111010
1111110010010100
1111110001101111
1111110001001010
1111110000100111
1111110000000100
1111101111100010
1111101111000000
1111101110100000
1111101110000000
1111101101100001
1111101101000010
1111101100100100
1111101100000111
1111101011101011
1111101011001111
1111101010110100
1111101010011001
1111101001111111
1111101001100101
1111101001001101
1111101000110100
1111101000011101
1111101000000110
1111100111101111
1111100111011001
1111100111000011
1111100110101110
1111100110011010
1111100110000110
1111100101110010
1111100101011111
1111100101001101
1111100100111010
1111100100101001
1111100100011000
1111100100000111
1111100011110110
1111100011100110
1111100011010111
1111100011001000
1111100010111001
1111100010101011
1111100010011101
1111100010001111
1111100010000010
1111100001110101
1111100001101000
1111100001011100
1111100001010000
1111100001000101
1111100000111001
1111100000101111
1111100000100100
1111100000011010
1111100000010000
1111100000000110
1111011111111100
1111011111110011
1111011111101010
1111011111100010
1111011111011001
1111011111010001
1111011111001001
1111011111000001
1111011110111010
1111011110110011
1111011110101100
1111011110100101
1111011110011110
1111011110011000
1111011110010010
1111011110001100
1111011110000110
1111011110000000
1111011101111011
1111011101110110
1111011101110000
1111011101101100
1111011101100111
1111011101100010
1111011101011110
1111011101011001
1111011101010101
1111011101010001
1111011101001101
1111011101001010
1111011101000110
1111011101000010
1111011100111111
1111011100111100
1111011100111001
1111011100110101
1111011100110011
1111011100110000
1111011100101101
1111011100101010
1111011100101000
1111011100100101
1111011100100011
1111011100100001
1111011100011110
1111011100011100
1111011100011010
1111011100011000
1111011100010110
1111011100010100
1111011100010010
1111011100010001
1111011100001111
1111011100001101
1111011100001100
1111011100001010
1111011100001001
1111011100000111
1111011100000110
1111011100000101
1111011100000011
1111011100000010
1111011100000001
1111011100000000
1111011011111110
1111011011111101
1111011011111100
1111011011111011
1111011011111010
1111011011111001
1111011011111000
1111011011110111
1111011011110110
1111011011110101
1111011011110100
1111011011110011
1111011011110010
1111011011110001
1111011011110001
1111011011110000
1111011011101111
1111011011101110
1111011011101101
1111011011101100
1111011011101011
1111011011101010
1111011011101010
1111011011101001
1111011011101000
1111011011100111
1111011011100110
1111011011100101
1111011011100100
1111011011100011
1111011011100011
1111011011100010
1111011011100001
1111011011100000
1111011011011111
1111011011011110
1111011011011101
1111011011011100
1111011011011011
1111011011011010
1111011011011001
1111011011011000
1111011011010111
1111011011010110
1111011011010101
1111011011010100
1111011011010011
1111011011010010
1111011011010000
1111011011001111
1111011011001110
1111011011001101
1111011011001100
1111011011001010
1111011011001001
1111011011001000
1111011011000111
1111011011000101
1111011011000100
1111011011000011
1111011011000001
1111011011000000
1111011010111110
1111011010111101
1111011010111100
1111011010111010
1111011010111001
1111011010110111
1111011010110110
1111011010110100
1111011010110010
1111011010110001
1111011010101111
1111011010101110
1111011010101100
1111011010101010
1111011010101001
1111011010100111
1111011010100101
1111011010100011
1111011010100010
1111011010100000
1111011010011110
1111011010011100
1111011010011010
1111011010011000
1111011010010110
1111011010010100
1111011010010010
1111011010010001
1111011010001111
1111011010001100
1111011010001010
1111011010001000
1111011010000110
1111011010000100
1111011010000010
1111011010000000
1111011001111110
1111011001111100
1111011001111001
1111011001110111
1111011001110101
1111011001110011
1111011001110001
1111011001101110
1111011001101100
1111011001101010
1111011001100111
1111011001100101
1111011001100011
1111011001100000
1111011001011110
1111011001011011
1111011001011001
1111011001010110
1111011001010100
1111011001010001
1111011001001111
1111011001001100
1111011001001010
1111011001000111
1111011001000101
1111011001000010
1111011001000000
1111011000111101
1111011000111010
1111011000111000
1111011000110101
1111011000110010
1111011000110000
1111011000101101
1111011000101010
1111011000100111
1111011000100101
1111011000100010
1111011000011111
1111011000011100
1111011000011001
1111011000010111
1111011000010100
1111011000010001
1111011000001110
1111011000001011
1111011000001000
1111011000000101
1111011000000010
1111010111111111
1111010111111101
1111010111111010
1111010111110111
1111010111110100
1111010111110001
1111010111101110
1111010111101011
1111010111100111
1111010111100100
1111010111100001
1111010111011110
1111010111011011
1111010111011000
1111010111010101
1111010111010010
1111010111001111
1111010111001011
1111010111001000
1111010111000101
1111010111000010
1111010110111111
1111010110111011
1111010110111000
1111010110110101
1111010110110001
1111010110101110
1111010110101011
1111010110100111
1111010110100100
1111010110100001
1111010110011101
1111010110011010
1111010110010111
1111010110010011
1111010110010000
1111010110001100
1111010110001001
1111010110000101
1111010110000010
1111010101111110
1111010101111011
1111010101110111
1111010101110011
1111010101110000
1111010101101100
1111010101101001
1111010101100101
1111010101100001
1111010101011101
1111010101011010
1111010101010110
1111010101010010
1111010101001110
1111010101001011
1111010101000111
1111010101000011
1111010100111111
1111010100111011
1111010100110111
1111010100110011
1111010100101111
1111010100101100
1111010100101000
1111010100100100
1111010100011111
1111010100011011
1111010100010111
1111010100010011
1111010100001111
1111010100001011
1111010100000111
1111010100000011
1111010011111110
1111010011111010
1111010011110110
1111010011110010
1111010011101101
1111010011101001
1111010011100100
1111010011100000
1111010011011100
1111010011010111
1111010011010011
1111010011001110
1111010011001010
1111010011000101
1111010011000001
1111010010111100
1111010010110111
1111010010110011
1111010010101110
1111010010101001
1111010010100100
1111010010100000
1111010010011011
1111010010010110
1111010010010001
1111010010001100
1111010010000111
1111010010000010
1111010001111101
1111010001111000
1111010001110011
1111010001101110
1111010001101001
1111010001100100
1111010001011111
1111010001011010
1111010001010100
1111010001001111
1111010001001010
1111010001000100
1111010000111111
1111010000111010
1111010000110100
1111010000101111
1111010000101001
1111010000100100
1111010000011110
1111010000011001
1111001111111011
1111001111110110
1111001111110001
1111001111101100
1111001111100111
1111001111100010
1111001111011101
1111001111011000
1111001111010011
1111001111001110
1111001111001001
1111001111000100
1111001110111111
1111001110111010
1111001110110101
1111001110110000
1111001110101011
1111001110100101
1111001110100000
1111001110011011
1111001110010110
1111001110010001
1111001110001100
1111001110000111
1111001110000010
1111001101111101
1111001101111000
1111001101110011
1111001101101110
1111001101101001
1111001101100100
1111001101011111
1111001101011010
1111001101010100
1111001101001111
1111001101001010
1111001101000101
1111001101000000
1111001100111011
1111001100110110
1111001100110001
1111001100101100
1111001100100111
1111001100100010
1111001100011101
1111001100010111
1111001100010010
1111001100001101
1111001100001000
1111001100000011
1111001011111110
1111001011111001
1111001011110100
1111001011101111
1111001011101010
1111001011100100
1111001011011111
1111001011011010
1111001011010101
1111001011010000
1111001011001011
1111001011000110
1111001011000001
1111001010111011
1111001010110110
1111001010110001
1111001010101100
1111001010100111
1111001010100010
1111001010011101
1111001010010111
1111001010010010
1111001010001101
1111001010001000
1111001010000011
1111001001111110
1111001001111001
1111001001110011
1111001001101110
1111001001101001
1111001001100100
1111001001011111
1111001001011010
1111001001010100
1111001001001111
1111001001001010
1111001001000101
1111001001000000
1111001000111010
1111001000110101
1111001000110000
1111001000101011
1111001000100110
1111001000100000
1111001000011011
1111001000010110
1111001000010001
1111001000001100
1111001000000110
1111001000000001
1111000111111100
1111000111110111
1111000111110001
1111000111101100
1111000111100111
1111000111100010
1111000111011100
1111000111010111
1111000111010010
1111000111001101
1111000111000111
1111000111000010
1111000110111101
1111000110111000
1111000110110010
1111000110101101
1111000110101000
1111000110100011
1111000110011101
1111000110011000
1111000110010011
1111000110001101
1111000110001000
1111000110000011
1111000101111101
1111000101111000
1111000101110011
1111000101101110
1111000101101000
1111000101100011
1111000101011110
1111000101011000
1111000101010011
1111000101001110
1111000101001000
1111000101000011
1111000100111110
1111000100111000
1111000100110011
1111000100101101
1111000100101000
1111000100100011
1111000100011101
1111000100011000
1111000100010011
1111000100001101
1111000100001000
1111000100000010
1111000011111101
1111000011111000
1111000011110010
1111000011101101
1111000011100111
1111000011100010
1111000011011101
1111000011010111
1111000011010010
1111000011001100
1111000011000111
1111000011000010
1111000010111100
1111000010110111
1111000010110001
1111000010101100
1111000010100110
1111000010100001
1111000010011011
1111000010010110
1111000010010001
1111000010001011
1111000010000110
1111000010000000
1111000001111011
1111000001110101
1111000001110000
1111000001101010
1111000001100101
1111000001011111
1111000001011010
1111000001010100
1111000001001111
1111000001001001
1111000001000100
1111000000111110
1111000000111001
1111000000110011
1111000000101110
1111000000101000
1111000000100010
1111000000011101
1111000000010111
1111000000010010
1111000000001100
1111000000000111
1111000000000001
1110111111111100
1110111111110110
1110111111110000
1110111111101011
1110111111100101
1110111111100000
1110111111011010
1110111111010100
1110111111001111
1110111111001001
1110111111000100
1110111110111110
1110111110111000
1110111110110011
1110111110101101
1110111110101000
1110111110100010
1110111110011100
1110111110010111
1110111110010001
1110111110001011
1110111110000110
1110111110000000
1110111101111010
1110111101110101
1110111101101111
1110111101101001
1110111101100100
1110111101011110
1110111101011000
1110111101010011
1110111101001101
1110111101000111
1110111101000010
1110111100111100
1110111100110110
1110111100110001
1110111100101011
1110111100100101
1110111100011111
1110111100011010
1110111100010100
1110111100001110
1110111100001001
1110111100000011
1110111011111101
1110111011110111
1110111011110010
1110111011101100
1110111011100110
1110111011100000
1110111011011011
1110111011010101
1110111011001111
1110111011001001
1110111011000100
1110111010111110
1110111010111000
1110111010110010
1110111010101100
1110111010100111
1110111010100001
1110111010011011
1110111010010101
1110111010001111
1110111010001010
1110111010000100
1110111001111110
1110111001111000
1110111001110010
1110111001101100
1110111001100111
1110111001100001
1110111001011011
1110111001010101
1110111001001111
1110111001001001
1110111001000011
1110111000111110
1110111000111000
1110111000110010
1110111000101100
1110111000100110
1110111000100000
1110111000011010
1110111000010100
1110111000001111
1110111000001001
1110111000000011
1110110111111101
1110110111110111
1110110111110001
1110110111101011
1110110111100101
1110110111011111
1110110111011001
1110110111010011
1110110111001110
1110110111001000
1110110111000010
1110110110111100
1110110110110110
1110110110110000
1110110110101010
1110110110100100
1110110110011110
1110110110011000
1110110110010010
1110110110001100
1110110110000110
1110110110000000
1110110101111010
1110110101110100
1110110101101110
1110110101101000
1110110101100010
1110110101011100
1110110101010110
1110110101010000
1110110101001010
1110110101000100
1110110100111110
1110110100111000
1110110100110010
1110110100101100
1110110100100110
1110110100100000
1110110100011010
1110110100010100
1110110100001110
1110110100001000
1110110100000010
1110110011111100
1110110011110110
1110110011110000
1110110011101010
1110110011100100
1110110011011110
1110110011011000
1110110011010001
1110110011001011
1110110011000101
1110110010111111
1110110010111001
1110110010110011
1110110010101101
1110110010100111
1110110010100001
1110110010011011
1110110010010101
1110110010001111
1110110010001000
1110110010000010
1110110001111100
1110110001110110
1110110001110000
1110110001101010
1110110001100100
1110110001011110
1110110001010111
1110110001010001
1110110001001011
1110110001000101
1110110000111111
1110110000111001
1110110000110011
1110110000101100
1110110000100110
1110110000100000
1110110000011010
1110110000010100
1110110000001110
1110110000000111
1110110000000001
1110101111111011
1110101111110101
1110101111101111
1110101111101001
1110101111100010
1110101111011100
1110101111010110
1110101111010000
1110101111001010
1110101111000011
1110101110111101
1110101110110111
1110101110110001
1110101110101011
1110101110100100
1110101110011110
1110101110011000
1110101110010010
1110101110001100
1110101110000101
1110101101111111
1110101101111001
1110101101110011
1110101101101100
1110101101100110
1110101101100000
1110101101011010
1110101101010011
1110101101001101
1110101101000111
1110101101000001
1110101100111010
1110101100110100
1110101100101110
1110101100101000
1110101100100001
1110101100011011
1110101100010101
1110101100001110
1110101100001000
1110101100000010
1110101011111100
1110101011110101
1110101011101111
1110101011101001
1110101011100010
1110101011011100
1110101011010110
1110101011010000
1110101011001001
1110101011000011
1110101010111101
1110101010110110
1110101010110000
1110101010101010
1110101010100011
1110101010011101
1110101010010111
1110101010010000
1110101010001010
1110101010000100
1110101001111101
1110101001110111
1110101001110001
1110101001101010
1110101001100100
1110101001011110
1110101001010111
1110101001010001
1110101001001011
1110101001000100
1110101000111110
1110101000111000
1110101000110001
1110101000101011
1110101000100101
1110101000011110
1110101000011000
1110101000010001
1110101000001011
1110101000000101
1110100111111110
1110100111111000
1110100111110010
1110100111101011
1110100111100101
1110100111011110
1110100111011000
1110100111010010
1110100111001011
1110100111000101
1110100110111110
1110100110111000
1110100110110010
1110100110101011
1110100110100101
1110100110011110
1110100110011000
1110100110010010
1110100110001011
1110100110000101
1110100101111110
1110100101111000
1110100101110010
1110100101101011
1110100101100101
1110100101011110
1110100101011000
1110100101010001
1110100101001011
1110100101000101
1110100100111110
1110100100111000
1110100100110001
1110100100101011
1110100100100100
1110100100011110
1110100100011000
1110100100010001
1110100100001011
1110100100000100
1110100011111110
1110100011110111
1110100011110001
1110100011101010
1110100011100100
1110100011011101
1110100011010111
1110100011010000
1110100011001010
1110100011000100
1110100010111101
1110100010110111
1110100010110000
1110100010101010
1110100010100011
1110100010011101
1110100010010110
1110100010010000
1110100010001001
1110100010000011
1110100001111100
1110100001110110
1110100001101111
1110100001101001
1110100001100010
1110100001011100
1110100001010101
1110100001001111
1110100001001000
1110100001000010
1110100000111011
1110100000110101
1110100000101110
1110100000101000
1110100000100001
1110100000011011
1110100000010100
1110100000001110
1110100000000111
1110100000000001
1110011111111010
1110011111110100
1110011111101101
1110011111100111
1110011111100000
1110011111011010
1110011111010011
1110011111001100
1110011111000110
1110011110111111
1110011110111001
1110011110110010
1110011110101100
1110011110100101
1110011110011111
1110011110011000
1110011110010010
1110011110001011
1110011110000100
1110011101111110
1110011101110111
1110011101110001
1110011101101010
1110011101100100
1110011101011101
1110011101010111
1110011101010000
1110011101001001
1110011101000011
1110011100111100
1110011100110110
1110011100101111
1110011100101001
1110011100100010
1110011100011100
1110011100010101
1110011100001110
1110011100001000
1110011100000001
1110011011111011
1110011011110100
1110011011101101
1110011011100111
1110011011100000
1110011011011010
1110011011010011
1110011011001101
1110011011000110
1110011010111111
1110011010111001
1110011010110010
1110011010101100
1110011010100101
1110011010011110
1110011010011000
1110011010010001
1110011010001011
1110011010000100
1110011001111101
1110011001110111
1110011001110000
1110011001101010
1110011001100011
1110011001011100
1110011001010110
1110011001001111
1110011001001000
1110011001000010
1110011000111011
1110011000110101
1110011000101110
1110011000100111
1110011000100001
1110011000011010
1110011000010100
1110011000001101
1110011000000110
1110011000000000
1110010111111001
1110010111110010
1110010111101100
1110010111100101
1110010111011110
1110010111011000
1110010111010001
1110010111001011
1110010111000100
1110010110111101
1110010110110111
1110010110110000
1110010110101001
1110010110100011
1110010110011100
1110010110010101
1110010110001111
1110010110001000
1110010110000001
1110010101111011
1110010101110100
1110010101101101
1110010101100111
1110010101100000
1110010101011001
1110010101010011
1110010101001100
1110010101000101
1110010100111111
1110010100111000
1110010100110001
1110010100101011
1110010100100100
1110010100011101
1110010100010111
1110010100010000
1110010100001001
1110010100000011
1110010011111100
1110010011110101
1110010011101111
1110010011101000
1110010011100001
1110010011011011
1110010011010100
1110010011001101
1110010011000110
1110010011000000
1110010010111001
1110010010110010
1110010010101100
1110010010100101
1110010010011110
1110010010011000
1110010010010001
1110010010001010
1110010010000011
1110010001111101
1110010001110110
1110010001101111
1110010001101001
1110010001100010
1110010001011011
1110010001010100
1110010001001110
1110010001000111
1110010001000000
1110010000111010
1110010000110011
1110010000101100
1110010000100101
1110010000011111
1110010000011000
1110010000010001
1110010000001011
1110010000000100
1110001111111101
1110001111110110
1110001111110000
1110001111101001
1110001111100010
1110001111011011
1110001111010101
1110001111001110
1110001111000111
1110001111000000
1110001110111010
1110001110110011
1110001110101100
1110001110100101
1110001110011111
1110001110011000
1110001110010001
1110001110001010
1110001110000100
1110001101111101
1110001101110110
1110001101101111
1110001101101001
1110001101100010
1110001101011011
1110001101010100
1110001101001101
1110001101000111
1110001101000000
1110001100111001
1110001100110010
1110001100101100
1110001100100101
1110001100011110
1110001100010111
1110001100010000
1110001100001010
1110001100000011
1110001011111100
1110001011110101
1110001011101110
1110001011101000
1110001011100001
1110001011011010
1110001011010011
1110001011001100
1110001011000110
1110001010111111
1110001010111000
1110001010110001
1110001010101010
1110001010100100
1110001010011101
1110001010010110
1110001010001111
1110001010001000
1110001010000010
1110001001111011
1110001001110100
1110001001101101
1110001001100110
1110001001011111
1110001001011001
1110001001010010
1110001001001011
1110001001000100
1110001000111101
1110001000110110
1110001000110000
1110001000101001
1110001000100010
1110001000011011
1110001000010100
1110001000001101
1110001000000110
1110001000000000
1110000111111001
1110000111110010
1110000111101011
1110000111100100
1110000111011101
1110000111010110
1110000111010000
1110000111001001
1110000111000010
1110000110111011
1110000110110100
1110000110101101
1110000110100110
1110000110100000
1110000110011001
1110000110010010
1110000110001011
1110000110000100
1110000101111101
1110000101110110
1110000101101111
1110000101101000
1110000101100010
1110000101011011
1110000101010100
1110000101001101
1110000101000110
1110000100111111
1110000100111000
1110000100110001
1110000100101010
1110000100100011
1110000100011100
1110000100010110
1110000100001111
1110000100001000
1110000100000001
1110000011111010
1110000011110011
1110000011101100
1110000011100101
1110000011011110
1110000011010111
1110000011010000
1110000011001001
1110000011000010
1110000010111011
1110000010110100
1110000010101110
1110000010100111
1110000010100000
1110000010011001
1110000010010010
1110000010001011
1110000010000100
1110000001111101
1110000001110110
1110000001101111
1110000001101000
1110000001100001
1110000001011010
1110000001010011
1110000001001100
1110000001000101
1110000000111110
1110000000110111
1110000000110000
1110000000101001
1110000000100010
1110000000011011
1110000000010100
1110000000001101
1110000000000110
1101111111111111
1101111111111000
1101111111110001
1101111111101010
1101111111100011
1101111111011100
1101111111010101
1101111111001110
1101111111000111
1101111111000000
1101111110111001
1101111110110010
1101111110101011
1101111110100100
1101111110011101
1101111110010110
1101111110001111
1101111110001000
1101111110000001
1101111101111010
1101111101110010
1101111101101011
1101111101100100
1101111101011101
1101111101010110
1101111101001111
1101111101001000
1101111101000001
1101111100111010
1101111100110011
1101111100101100
1101111100100101
1101111100011110
1101111100010111
1101111100001111
1101111100001000
1101111100000001
1101111011111010
1101111011110011
1101111011101100
1101111011100101
1101111011011110
1101111011010111
1101111011001111
1101111011001000
1101111011000001
1101111010111010
1101111010110011
1101111010101100
1101111010100101
1101111010011110
1101111010010110
1101111010001111
1101111010001000
1101111010000001
1101111001111010
1101111001110011
1101111001101100
1101111001100100
1101111001011101
1101111001010110
1101111001001111
1101111001001000
1101111001000001
1101111000111001
1101111000110010
1101111000101011
1101111000100100
1101111000011101
1101111000010110
1101111000001110
1101111000000111
1101111000000000
1101110111111001
1101110111110010
1101110111101010
1101110111100011
1101110111011100
1101110111010101
1101110111001101
1101110111000110
1101110110111111
1101110110111000
1101110110110001
1101110110101001
1101110110100010
1101110110011011
1101110110010100
1101110110001100
1101110110000101
1101110101111110
1101110101110111
1101110101101111
1101110101101000
1101110101100001
1101110101011010
1101110101010010
1101110101001011
1101110101000100
1101110100111100
1101110100110101
1101110100101110
1101110100100111
1101110100011111
1101110100011000
1101110100010001
1101110100001001
1101110100000010
1101110011111011
1101110011110100
1101110011101100
1101110011100101
1101110011011110
1101110011010110
1101110011001111
1101110011001000
1101110011000000
1101110010111001
1101110010110010
1101110010101010
1101110010100011
1101110010011100
1101110010010100
1101110010001101
1101110010000101
1101110001111110
1101110001110111
1101110001101111
1101110001101000
1101110001100001
1101110001011001
1101110001010010
1101110001001010
1101110001000011
1101110000111100
1101110000110100
1101110000101101
1101110000100101
1101110000011110
1101110000010111
1101110000001111
1101110000001000
1101110000000000
1101101111111001
1101101111110010
1101101111101010
1101101111100011
1101101111011011
1101101111010100
1101101111001100
1101101111000101
1101101110111101
1101101110110110
1101101110101111
1101101110100111
1101101110100000
1101101110011000
1101101110010001
1101101110001001
1101101110000010
1101101101111010
1101101101110011
1101101101101011
1101101101100100
1101101101011100
1101101101010101
1101101101001101
1101101101000110
1101101100111110
1101101100110111
1101101100101111
1101101100101000
1101101100100000
1101101100011001
1101101100010001
1101101100001010
1101101100000010
1101101011111010
1101101011110011
1101101011101011
1101101011100100
1101101011011100
1101101011010101
1101101011001101
1101101011000110
1101101010111110
1101101010110110
1101101010101111
1101101010100111
1101101010100000
1101101010011000
1101101010010000
1101101010001001
1101101010000001
1101101001111010
1101101001110010
1101101001101010
1101101001100011
1101101001011011
1101101001010100
1101101001001100
1101101001000100
1101101000111101
1101101000110101
1101101000101101
1101101000100110
1101101000011110
1101101000010111
1101101000001111
1101101000000111
1101101000000000
1101100111111000
1101100111110000
1101100111101001
1101100111100001
1101100111011001
1101100111010010
1101100111001010
1101100111000010
1101100110111010
1101100110110011
1101100110101011
1101100110100011
1101100110011100
1101100110010100
1101100110001100
1101100110000101
1101100101111101
1101100101110101
1101100101101101
1101100101100110
1101100101011110
1101100101010110
1101100101001110
1101100101000111
1101100100111111
1101100100110111
1101100100101111
1101100100101000
1101100100100000
1101100100011000
1101100100010000
1101100100001001
1101100100000001
1101100011111001
1101100011110001
1101100011101010
1101100011100010
1101100011011010
1101100011010010
1101100011001010
1101100011000011
1101100010111011
1101100010110011
1101100010101011
1101100010100011
1101100010011100
1101100010010100
1101100010001100
1101100010000100
1101100001111100
1101100001110100
1101100001101101
1101100001100101
1101100001011101
1101100001010101
1101100001001101
1101100001000101
1101100000111101
1101100000110110
1101100000101110
1101100000100110
1101100000011110
1101100000010110
1101100000001110
1101100000000110
1101011111111111
1101011111110111
1101011111101111
1101011111100111
1101011111011111
1101011111010111
1101011111001111
1101011111000111
1101011110111111
1101011110110111
1101011110110000
1101011110101000
1101011110100000
1101011110011000
1101011110010000
1101011110001000
1101011110000000
1101011101111000
1101011101110000
1101011101101000
1101011101100000
1101011101011000
1101011101010000
1101011101001000
1101011101000001
1101011100111001
1101011100110001
1101011100101001
1101011100100001
1101011100011001
1101011100010001
1101011100001001
1101011100000001
1101011011111001
1101011011110001
1101011011101001
1101011011100001
1101011011011001
1101011011010001
1101011011001001
1101011011000001
1101011010111001
1101011010110001
1101011010101001
1101011010100001
1101011010110101
1101011010101101
1101011010100101
1101011010011110
1101011010010110
1101011010001110
1101011010000110
1101011001111110
1101011001110110
1101011001101110
1101011001100110
1101011001011110
1101011001010110
1101011001001110
1101011001000110
1101011000111110
1101011000110110
1101011000101110
1101011000100110
1101011000011110
1101011000010110
1101011000001110
1101011000000110
1101010111111110
1101010111110101
1101010111101101
1101010111100101
1101010111011101
1101010111010101
1101010111001101
1101010111000100
1101010110111100
1101010110110100
1101010110101100
1101010110100011
1101010110011011
1101010110010011
1101010110001010
1101010110000010
1101010101111001
1101010101110001
1101010101101001
1101010101100000
1101010101011000
1101010101001111
1101010101000111
1101010100111110
1101010100110110
1101010100101101
1101010100100101
1101010100011100
1101010100010011
1101010100001011
1101010100000010
1101010011111001
1101010011110001
1101010011101000
1101010011011111
1101010011010111
1101010011001110
1101010011000101
1101010010111100
1101010010110011
1101010010101011
1101010010100010
1101010010011001
1101010010010000
1101010010000111
1101010001111110
1101010001110101
1101010001101100
1101010001100011
1101010001011010
1101010001010001
1101010001001000
1101010000111111
1101010000110110
1101010000101101
1101010000100100
1101010000011011
1101010000010010
1101010000001001
1101001111111111
1101001111110110
1101001111101101
1101001111100100
1101001111011010
1101001111010001
1101001111001000
1101001110111111
1101001110110101
1101001110101100
1101001110100011
1101001110011001
1101001110010000
1101001110000111
1101001101111101
1101001101110100
1101001101101010
1101001101100001
1101001101010111
1101001101001110
1101001101000100
1101001100111011
1101001100110001
1101001100101000
1101001100011110
1101001100010101
1101001100001011
1101001100000001
1101001011111000
1101001011101110
1101001011100100
1101001011011011
1101001011010001
1101001011000111
1101001010111110
1101001010110100
1101001010101010
1101001010100000
1101001010010111
1101001010001101
1101001010000011
1101001001111001
1101001001110000
1101001001100110
1101001001011100
1101001001010010
1101001001001000
1101001000111110
1101001000110100
1101001000101010
1101001000100001
1101001000010111
1101001000001101
1101001000000011
1101000111111001
1101000111101111
1101000111100101
1101000111011011
1101000111010001
1101000111000111
1101000110111101
1101000110110011
1101000110101001
1101000110011110
1101000110010100
1101000110001010
1101000110000000
1101000101110110
1101000101101100
1101000101100010
1101000101011000
1101000101001101
1101000101000011
1101000100111001
1101000100101111
1101000100100100
1101000100011010
1101000100010000
1101000100000110
1101000011111011
1101000011110001
1101000011100111
1101000011011100
1101000011010010
1101000011001000
1101000010111101
1101000010110011
1101000010101000
1101000010011110
1101000010010011
1101000010001001
1101000001111111
1101000001110100
1101000001101001
1101000001011111
1101000001010100
1101000001001010
1101000000111111
1101000000110100
1101000000101010
1101000000011111
1101000000010100
1101000000001010
1100111111111111
1100111111110100
1100111111101001
1100111111011110
1100111111010100
1100111111001001
1100111110111110
1100111110110011
1100111110101000
1100111110011101
1100111110010010
1100111110000111
1100111101111100
1100111101110000
1100111101100101
1100111101011010
1100111101001111
1100111101000011
1100111100111000
1100111100101101
1100111100100001
1100111100010110
1100111100001010
1100111011111111
1100111011110011
1100111011101000
1100111011011100
1100111011010000
1100111011000100
1100111010111001
1100111010101101
1100111010100001
1100111010010101
1100111010001001
1100111001111101
1100111001110000
1100111001100100
1100111001011000
1100111001001011
1100111000111111
1100111000110011
1100111000100110
1100111000011001
1100111000001101
1100111000000000
1100110111110011
1100110111100110
1100110111011001
1100110111001100
1100110110111111
1100110110110001
1100110110100100
1100110110010111
1100110110001001
1100110101111011
1100110101101110
1100110101100000
1100110101010010
1100110101000100
1100110100110110
1100110100100111
1100110100011001
1100110100001011
1100110011111100
1100110011101101
1100110011011110
1100110011001111
1100110011000000
1100110010110001
1100110010100010
1100110010010010
1100110010000011
1100110001110011
1100110001100011
1100110001010011
1100110001000011
1100110000110011
1100110000100010
1100110000010001
1100110000000001
1100101111110000
1100101111011110
1100101111001101
1100101110111100
1100101110101010
1100101110011000
1100101110000110
1100101101110100
1100101101100001
1100101101001111
1100101100111100
1100101100101001
1100101100010110
1100101100000010
1100101011101111
1100101011011011
1100101011000111
1100101010110010
1100101010011110
1100101010001001
1100101001110100
1100101001011111
1100101001001001
1100101000110011
1100101000011101
1100101000000111
1100100111110000
1100100111011010
1100100111000011
1100100110101011
1100100110010011
1100100101111011
1100100101100011
1100100101001011
1100100100110010
1100100100011000
1100100011111111
1100100011100101
1100100011001011
1100100010110000
1100100010010110
1100100001111010
1100100001011111
1100100001000011
1100100000100111
1100100000001010
1100011111101101
1100011111010000
1100011110110010
1100011110010100
1100011101110101
1100011101010110
1100011100110111
1100011100010111
1100011011110111
1100011011010110
1100011010110101
1100011010010011
1100011001110001
1100011001001111
1100011000101100
1100011000001001
1100010111100101
1100010111000000
1100010110011011
1100010101110110
1100010101010000
1100010100101010
1100010100000011
1100010011011011
1100010010110011
1100010010001011
1100010001100010
1100010000111000
1100010000001110
1100001111100011
1100001110110111
1100001110001011
1100001101011111
1100001100110001
1100001100000011
1100001011010101
1100001010100110
1100001001110110
1100001001000101
1100001000010100
1100000111100010
1100000110110000
1100000101111101
1100000101001001
1100000100010100
1100000011011111
1100000010101000
1100000001110010
1100000000111010
1100000000000010
1011111111001000
1011111110001110
1011111101010100
1011111100011000
1011111011011100
1011111010011110
1011111001100000
1011111000100001
1011110111100010
1011110110100001
1011110101011111
1011110100011101
1011110011011010
1011110010010101
1011110001010000
1011110000001010
1011101111000011
1011101101111011
1011101100110010
1011101011100111
1011101010011100
1011101001010000
1011101000000011
1011100110110101
1011100101100110
1011100100010101
1011100011000100
1011100001110010
1011100000011110
1011011111001001
1011011101110011
1011011100011100
1011011011000100
1011011001101011
1011011000010000
1011010110110101
1011010101011000
1011010011111001
1011010010011010
1011010000111001
1011001111010111
1011001101110100
1011001100001111
1011001010101001
1011001001000010
1011000111011001
1011000101101111
1011000100000100
1011000010010111
1011000000101001
1010111110111001
1010111101001000
1010111011010110
1010111001100010
1010110111101100
1010110101110101
1010110011111101
1010110010000010
1010110000000111
1010101110001001
1010101100001011
1010101010001010
1010101000001000
1010100110000100
1010100011111111
1010100001110111
1010011111101111
1010011101100100
1010011011011000
1010011001001010
1010010110111010
1010010100101000
1010010010010100
1010001111111111
1010001101101000
1010001011001111
1010001000110100
1010000110010111
1010000011111000
1010000001010111
1001111110110100
1001111100001111
1001111001101000
1001110111000000
1001110100010101
1001110001101000
1001101110111000
1001101100000111
1001101001010100
1001100110011110
1001100011100110
1001100000101100
1001011101110000
1001011010110010
1001010111110001
1001010100101110
1001010001101000
1001001110100000
1001001011010110
1001001000001010
1001000100111011
1001000001101001
1000111110010101
1000111010111111
1000110111100110
1000110100001011
1000110000101101
1000101101001100
1000101001101001
1000100110000011
1000100010011010
1000011110101111
1000011011000001
1000010111010000
1000010011011101
1000001111100111
1000001011101110
1000000111110010
1000000011110011
1000000000000000
1000000000000000
1000000000000000
1000000000000000
1000000000000000
1000000000000000
1000000000000000
1000000000000000
1000000000000000
1000000000000000
1000000000000000
1000000000000000
1000000000000000
1000000000000000
1000000000000000
1000000000000000
1000000000000000
1000000000000000
1000000000000000
1000000000000000
1000000000000000
1000000000000000
1000000000000000
1000000000000000
1000000000000000
1000000000000000
1000000000000000
1000000000000000
1000000000000000
1000000000000000
1000000000000000
1000000000000000
1000000000000000
1000000000000000
1000000000000000
1000000000000000
1000000000000000
1000000000000000
1000000000000000
1000000000000000
1000000000000000
1000000000000000
1000000000000000
1000000000000000
1000000000000000
1000000000000000
1000000000000000
1000000000000000
1000000000000000
1000000000000000
1000000000000000
1000000000000000
1000000000000000
1000000000000000
1000000000000000
1000000000000000
1000000000000000
1000000000000000
1000000000000000
1000000000000000
1000000000000000
1000000000000000
1000000000000000
1000000000000000
1000000000000000
1000000000000000
1000000000000000
1000000000000000
1000000000000000
1000000000000000
1000000000000000
1000000000000000
1000000000000000
1000000000000000
1000000000000000
1000000000000000
1000000000000000
1000000000000000
1000000000000000
1000000000000000
1000000000000000
1000000000000000
1000000000000000
1000000000000000
1000000000000000
1000000000000000
1000000000000000
1000000000000000
1000000000000000
1000000000000000
1000000000000000
1000000000000000
1000000000000000
1000000000000000
1000000000000000
1000000000000000
1000000000000000
1000000000000000
1000000000000000
1000000000000000
1000000000000000
1000000000000000
1000000000000000
1000000000000000
1000000000000000
1000000000000000
1000000000000000
1000000000000000
1000000000000000
1000000000000000
1000000000000000
1000000000000000
1000000000000000
1000000000000000
1000000000000000
1000000000000000
1000000000000000
1000000000000000
1000000000000000
1000000000000000
1000000000000000
1000000000000000
1000000000000000
1000000000000000
1000000000000000
1000000000000000
1000000000000000
1000000000000000
1000000000000000
1000000000000000
1000000000000000
1000000000000000
1000000000000000
1000000000000000
1000000000000000
1000000000000000
1000000000000000
1000000000000000
1000000000000000
1000000000000000
1000000000000000
1000000000000000
1000000000000000
1000000000000000
1000000000000000
1000000000000000
1000000000000000
1000000000000000
1000000000000000
1000000000000000
1000000000000000
1000000000000000
1000000000000000
1000000000000000
1000000000000000
1000000000000000
1000000000000000
1000000000000000
1000000000000000
1000000000000000
1000000000000000
1000000000000000
1000000000000000
1000000000000000
1000000000000000
1000000000000000
1000000000000000
1000000000000000
1000000000000000
1000000000000000
1000000000000000
1000000000000000
1000000000000000
1000000000000000
1000000000000000
1000000000000000
1000000000000000
1000000000000000
1000000000000000
1000000000000000
1000000000000000
1000000000000000
1000000000000000
1000000000000000
1000000000000000
1000000000000000
1000000000000000
1000000000000000
1000000000000000
1000000000000000
1000000000000000
1000000000000000
1000000000000000
1000000000000000
1000000000000000
1000000000000000
1000000000000000
1000000000000000
1000000000000000
1000000000000000
1000000000000000
1000000000000000
1000000000000000
1000000000000000
1000000000000000
1000000000000000
1000000000000000
1000000000000000
1000000000000000
1000000000000000
1000000000000000
1000000000000000
1000000000000000
1000000000000000
1000000000000000
1000000000000000
1000000000000000
1000000000000000
1000000000000000
1000000000000000
1000000000000000
1000000000000000
1000000000000000
1000000000000000
1000000000000000
1000000000000000
1000000000000000
1000000000000000
1000000000000000
1000000000000000
1000000000000000
1000000000000000
1000000000000000
1000000000000000
1000000000000000
1000000000000000
1000000000000000
1000000000000000
1000000000000000
1000000000000000
1000000000000000
1000000000000000
1000000000000000
1000000000000000
1000000000000000
1000000000000000
1000000000000000
1000000000000000
1000000000000000
1000000000000000
1000000000000000
1000000000000000
1000000000000000
1000000000000000
1000000000000000
1000000000000000
1000000000000000
1000000000000000
1000000000000000
1000000000000000
1000000000000000
1000000000000000
1000000000000000
1000000000000000
1000000000000000
1000000000000000
1000000000000000
1000000000000000
1000000000000000
1000000000000000
1000000000000000
1000000000000000
1000000000000000
1000000000000000
1000000000000000
1000000000000000
1000000000000000
1000000000000000
1000000000000000
1000000000000000
1000000000000000
1000000000000000
1000000000000000
1000000000000000
1000000000000000
1000000000000000
1000000000000000
1000000000000000
1000000000000000
1000000000000000
1000000000000000
1000000000000000
1000000000000000
1000000000000000
1000000000000000
1000000000000000
1000000000000000
1000000000000000
1000000000000000
1000000000000000
1000000000000000
1000000000000000
1000000000000000
1000000000000000
1000000000000000
1000000000000000
1000000000000000
1000000000000000
1000000000000000
1000000000000000
1000000000000000
1000000000000000
1000000000000000
1000000000000000
1000000000000000
1000000000000000
1000000000000000
1000000000000000
1000000000000000
1000000000000000
1000000000000000
1000000000000000
1000000000000000
1000000000000000
1000000000000000
1000000000000000
1000000000000000
1000000000000000
1000000000000000
1000000000000000
1000000000000000
1000000000000000
1000000000000000
1000000000000000
1000000000000000
1000000000000000
1000000000000000
1000000000000000
1000000000000000
1000000000000000
1000000000000000
1000000000000000
1000000000000000
1000000000000000
1000000000000000
1000000000000000
1000000000000000
1000000000000000
1000000000000000
1000000000000000
1000000000000000
1000000000000000
1000000000000000
1000000000000000
1000000000000000
1000000000000000
1000000000000000
1000000000000000
1000000000000000
1000000000000000
1000000000000000
1000000000000000
1000000000000000
1000000000000000
1000000000000000
1000000000000000
1000000000000000
1000000000000000
1000000000000000
1000000000000000
1000000000000000
1000000000000000
1000000000000000
1000000000000000
1000000000000000
1000000000000000
1000000000000000
1000000000000000
1000000000000000
1000000000000000
1000000000000000
1000000000000000
1000000000000000
1000000000000000
1000000000000000
1000000000000000
1000000000000000
1000000000000000
1000000000000000
1000000000000000
1000000000000000
1000000000000000
1000000000000000
1000000000000000
1000000000000000
1000000000000000
1000000000000000
1000000000000000
1000000000000000
1000000000000000
1000000000000000
1000000000000000
1000000000000000
1000000000000000
1000000000000000
1000000000000000
1000000000000000
1000000000000000
1000000000000000
1000000000000000
1000000000000000
1000000000000000
1000000000000000
1000000000000000
1000000000000000
1000000000000000
1000000000000000
1000000000000000
1000000000000000
1000000000000000
1000000000000000
1000000000000000
1000000000000000
1000000000000000
1000000000000000
1000000000000000
1000000000000000
1000000000000000
1000000000000000
1000000000000000
1000000000000000
1000000000000000
1000000000000000
1000000000000000
1000000000000000
1000000000000000
1000000000000000
1000000000000000
1000000000000000
1000000000000000
1000000000000000
1000000000000000
1000000000000000
1000000000000000
1000000000000000
1000000000000000
1000000000000000
1000000000000000
1000000000000000
1000000000000000
1000000000000000
1000000000000000
1000000000000000
1000000000000000
1000000000000000
1000000000000000
1000000000000000
1000000000000000
1000000000000000
1000000000000000
1000000000000000
1000000000000000
1000000000000000
1000000000000000
1000000000000000
1000000000000000
1000000000000000
1000000000000000
1000000000000000
1000000000000000
1000000000000000
1000000000000000
1000000000000000
1000000000000000
1000000000000000
1000000000000000
1000000000000000
1000000000000000
1000000000000000
1000000000000000
1000000000000000
1000000000000000
1000000000000000
1000000000000000
1000000000000000
1000000000000000
1000000000000000
1000000000000000
1000000000000000
1000000000000000
1000000000000000
1000000000000000
1000000000000000
1000000000000000
1000000000000000
1000000000000000
1000000000000000
1000000000000000
1000000000000000
1000000000000000
1000000000000000
1000000000000000
1000000000000000
1000000000000000
1000000000000000
1000000000000000
1000000000000000
1000000000000000
1000000000000000
1000000000000000
1000000000000000
1000000000000000
1000000000000000
1000000000000000
1000000000000000
1000000000000000
1000000000000000
1000000000000000
1000000000000000
1000000000000000
1000000000000000
1000000000000000
1000000000000000
1000000000000000
1000000000000000
1000000000000000
1000000000000000
1000000000000000
1000000000000000
1000000000000000
1000000000000000
1000000000000000
1000000000000000
1000000000000000
1000000000000000
1000000000000000
1000000000000000
1000000000000000
1000000000000000
1000000000000000
1000000000000000
1000000000000000
1000000000000000
1000000000000000
1000000000000000
1000000000000000
1000000000000000
1000000000000000
1000000000000000
1000000000000000
1000000000000000
1000000000000000
1000000000000000
1000000000000000
1000000000000000
1000000000000000
1000000000000000
1000000000000000
1000000000000000
1000000000000000
1000000000000000
1000000000000000
1000000000000000
1000000000000000
1000000000000000
1000000000000000
1000000000000000
1000000000000000
1000000000000000
1000000000000000
1000000000000000
1000000000000000
1000000000000000
1000000000000000
1000000000000000
1000000000000000
1000000000000000
1000000000000000
1000000000000000
1000000000000000
1000000000000000
1000000000000000
1000000000000000
1000000000000000
1000000000000000
1000000000000000
1000000000000000
1000000000000000
1000000000000000
1000000000000000
1000000000000000
1000000000000000
1000000000000000
1000000000000000
1000000000000000
1000000000000000
1000000000000000
1000000000000000
1000000000000000
1000000000000000
1000000000000000
1000000000000000
1000000000000000
1000000000000000
1000000000000000
1000000000000000
1000000000000000
1000000000000000
1000000000000000
1000000000000000
1000000000000000
1000000000000000
1000000000000000
1000000000000000
1000000000000000
1000000000000000
1000000000000000
1000000000000000
1000000000000000
1000000000000000
1000000000000000
1000000000000000
1000000000000000
1000000000000000
1000000000000000
1000000000000000
1000000000000000
1000000000000000
1000000000000000
1000000000000000
1000000000000000
1000000000000000
1000000000000000
1000000000000000
1000000000000000
1000000000000000
1000000000000000
1000000000000000
1000000000000000
1000000000000000
1000000000000000
1000000000000000
1000000000000000
1000000000000000
1000000000000000
1000000000000000
1000000000000000
1000000000000000
1000000000000000
1000000000000000
1000000000000000
1000000000000000
1000000000000000
1000000000000000
1000000000000000
1000000000000000
1000000000000000
1000000000000000
1000000000000000
1000000000000000
1000000000000000
1000000000000000
1000000000000000
1000000000000000
1000000000000000
1000000000000000
1000000000000000
1000000000000000
1000000000000000
1000000000000000
1000000000000000
1000000000000000
1000000000000000
1000000000000000
1000000000000000
1000000000000000
1000000000000000
1000000000000000
1000000000000000
1000000000000000
1000000000000000
1000000000000000
1000000000000000
1000000000000000
1000000000000000
1000000000000000
1000000000000000
1000000000000000
1000000000000000
1000000000000000
1000000000000000
1000000000000000
1000000000000000
1000000000000000
1000000000000000
1000000000000000
1000000000000000
1000000000000000
1000000000000000
1000000000000000
1000000000000000
1000000000000000
1000000000000000
1000000000000000
1000000000000000
1000000000000000
1000000000000000
1000000000000000
1000000000000000
1000000000000000
1000000000000000
1000000000000000
1000000000000000
1000000000000000
1000000000000000
1000000000000000
1000000000000000
1000000000000000
1000000000000000
1000000000000000
1000000000000000
1000000000000000
1000000000000000
1000000000000000
1000000000000000
1000000000000000
1000000000000000
1000000000000000
1000000000000000
1000000000000000
1000000000000000
1000000000000000
1000000000000000
1000000000000000
1000000000000000
1000000000000000
1000000000000000
1000000000000000
1000000000000000
1000000000000000
1000000000000000
1000000000000000
1000000000000000
1000000000000000
1000000000000000
1000000000000000
1000000000000000
1000000000000000
1000000000000000
1000000000000000
1000000000000000
1000000000000000
1000000000000000
1000000000000000
1000000000000000
1000000000000000
1000000000000000
1000000000000000
1000000000000000
1000000000000000
1000000000000000
1000000000000000
1000000000000000
1000000000000000
1000000000000000
1000000000000000
1000000000000000
1000000000000000
1000000000000000
1000000000000000
1000000000000000
1000000000000000
1000000000000000
1000000000000000
1000000000000000
1000000000000000
1000000000000000
1000000000000000
1000000000000000
1000000000000000
1000000000000000
1000000000000000
1000000000000000
1000000000000000
1000000000000000
1000000000000000
1000000000000000
1000000000000000
1000000000000000
1000000000000000
1000000000000000
1000000000000000
1000000000000000
1000000000000000
1000000000000000
1000000000000000
1000000000000000
1000000000000000
1000000000000000
1000000000000000
1000000000000000
1000000000000000
1000000000000000
1000000000000000
1000000000000000
1000000000000000
1000000000000000
1000000000000000
1000000000000000
1000000000000000
1000000000000000
1000000000000000
1000000000000000
1000000000000000
1000000000000000
1000000000000000
1000000000000000
1000000000000000
1000000000000000
1000000000000000
1000000000000000
1000000000000000
1000000000000000
1000000000000000
1000000000000000
1000000000000000
1000000000000000
1000000000000000
1000000000000000
1000000000000000
1000000000000000
1000000000000000
1000000000000000
1000000000000000
1000000000000000
1000000000000000
1000000000000000
1000000000000000
1000000000000000
1000000000000000
1000000000000000
1000000000000000
1000000000000000
1000000000000000
1000000000000000
1000000000000000
1000000000000000
1000000000000000
1000000000000000
1000000000000000
1000000000000000
1000000000000000
1000000000000000
1000000000000000
1000000000000000
1000000000000000
1000000000000000
1000000000000000
1000000000000000
1000000000000000
1000000000000000
1000000000000000
1000000000000000
1000000000000000
1000000000000000
1000000000000000
1000000000000000
1000000000000000
1000000000000000
1000000000000000
1000000000000000
1000000000000000
1000000000000000
1000000000000000
1000000000000000
1000000000000000
1000000000000000
1000000000000000
1000000000000000
1000000000000000
1000000000000000
1000000000000000
1000000000000000
1000000000000000
1000000000000000
1000000000000000
1000000000000000
1000000000000000
1000000000000000
1000000000000000
1000000000000000
1000000000000000
1000000000000000
1000000000000000
1000000000000000
1000000000000000
1000000000000000
1000000000000000
1000000000000000
1000000000000000
1000000000000000
1000000000000000
1000000000000000
1000000000000000
1000000000000000
1000000000000000
1000000000000000
1000000000000000
1000000000000000
1000000000000000
1000000000000000
1000000000000000
1000000000000000
1000000000000000
1000000000000000
1000000000000000
1000000000000000
1000000000000000
1000000000000000
1000000000000000
1000000000000000
1000000000000000
1000000000000000
1000000000000000
1000000000000000
1000000000000000
1000000000000000
1000000000000000
1000000000000000
1000000000000000
1000000000000000
1000000000000000
1000000000000000
1000000000000000
1000000000000000
1000000000000000
1000000000000000
1000000000000000
1000000000000000
1000000000000000
1000000000000000
1000000000000000
1000000000000000
1000000000000000
1000000000000000
1000000000000000
1000000000000000
1000000000000000
1000000000000000
1000000000000000
1000000000000000
1000000000000000
1000000000000000
1000000000000000
1000000000000000
1000000000000000
1000000000000000
1000000000000000
1000000000000000
1000000000000000
1000000000000000
1000000000000000
1000000000000000
1000000000000000
1000000000000000
1000000000000000
1000000000000000
1000000000000000
1000000000000000
1000000000000000
1000000000000000
1000000000000000
1000000000000000
1000000000000000
1000000000000000
1000000000000000
1000000000000000
1000000000000000
1000000000000000
1000000000000000
1000000000000000
1000000000000000
1000000000000000
1000000000000000
1000000000000000
1000000000000000
1000000000000000
1000000000000000
1000000000000000
1000000000000000
1000000000000000
1000000000000000
1000000000000000
1000000000000000
1000000000000000
1000000000000000
1000000000000000
1000000000000000
1000000000000000
1000000000000000
1000000000000000
1000000000000000
1000000000000000
1000000000000000
1000000000000000
1000000000000000
1000000000000000
1000000000000000
1000000000000000
1000000000000000
1000000000000000
1000000000000000
1000000000000000
1000000000000000
1000000000000000
1000000000000000
1000000000000000
1000000000000000
1000000000000000
1000000000000000
1000000000000000
1000000000000000
1000000000000000
1000000000000000
1000000000000000
1000000000000000
1000000000000000
1000000000000000
1000000000000000
1000000000000000
1000000000000000
1000000000000000
1000000000000000
1000000000000000
1000000000000000
1000000000000000
1000000000000000
1000000000000000
1000000000000000
1000000000000000
1000000000000000
1000000000000000
1000000000000000
1000000000000000
1000000000000000
1000000000000000
1000000000000000
1000000000000000
1000000000000000
1000000000000000
1000000000000000
1000000000000000
1000000000000000
1000000000000000
1000000000000000
1000000000000000
1000000000000000
1000000000000000
1000000000000000
1000000000000000
1000000000000000
1000000000000000
1000000000000000
1000000000000000
1000000000000000
1000000000000000
1000000000000000
1000000000000000
1000000000000000
1000000000000000
1000000000000000
1000000000000000
1000000000000000
1000000000000000
1000000000000000
1000000000000000
1000000000000000
1000000000000000
1000000000000000
1000000000000000
1000000000000000
1000000000000000
1000000000000000
1000000000000000
1000000000000000
1000000000000000
1000000000000000
1000000000000000
1000000000000000
1000000000000000
1000000000000000
1000000000000000
1000000000000000
1000000000000000
1000000000000000
1000000000000000
1000000000000000
1000000000000000
1000000000000000
1000000000000000
1000000000000000
1000000000000000
1000000000000000
1000000000000000
1000000000000000
1000000000000000
1000000000000000
1000000000000000
1000000000000000
1000000000000000
1000000000000000
1000000000000000
1000000000000000
1000000000000000
1000000000000000
1000000000000000
1000000000000000
1000000000000000
1000000000000000
1000000000000000
1000000000000000
1000000000000000
1000000000000000
1000000000000000
1000000000000000
1000000000000000
1000000000000000
1000000000000000
1000000000000000
1000000000000000
1000000000000000
1000000000000000
1000000000000000
1000000000000000
1000000000000000
1000000000000000
1000000000000000
1000000000000000
1000000000000000
1000000000000000
1000000000000000
1000000000000000
1000000000000000
1000000000000000
1000000000000000
1000000000000000
1000000000000000
1000000000000000
1000000000000000
1000000000000000
1000000000000000
1000000000000000
1000000000000000
1000000000000000
1000000000000000
1000000000000000
1000000000000000
1000000000000000
1000000000000000
1000000000000000
1000000000000000
1000000000000000
1000000000000000
1000000000000000
1000000000000000
1000000000000000
1000000000000000
1000000000000000
1000000000000000
1000000000000000
1000000000000000
1000000000000000
1000000000000000
1000000000000000
1000000000000000
1000000000000000
1000000000000000
1000000000000000
1000000000000000
1000000000000000
1000000000000000
1000000000000000
1000000000000000
1000000000000000
1000000000000000
1000000000000000
1000000000000000
1000000000000000
1000000000000000
1000000000000000
1000000000000000
1000000000000000
1000000000000000
1000000000000000
1000000000000000
1000000000000000
1000000000000000
1000000000000000
1000000000000000
1000000000000000
1000000000000000
1000000000000000
1000000000000000
1000000000000000
1000000000000000
1000000000000000
1000000000000000
1000000000000000
1000000000000000
1000000000000000
1000000000000000
1000000000000000
1000000000000000
1000000000000000
1000000000000000
1000000000000000
1000000000000000
1000000000000000
1000000000000000
1000000000000000
1000000000000000
1000000000000000
1000000000000000
1000000000000000
1000000000000000
1000000000000000
1000000000000000
1000000000000000
1000000000000000
1000000000000000
1000000000000000
1000000000000000
1000000000000000
1000000000000000
1000000000000000
1000000000000000
1000000000000000
1000000000000000
1000000000000000
1000000000000000
1000000000000000
1000000000000000
1000000000000000
1000000000000000
1000000000000000
1000000000000000
1000000000000000
1000000000000000
1000000000000000
1000000000000000
1000000000000000
1000000000000000
1000000000000000
1000000000000000
1000000000000000
1000000000000000
1000000000000000
1000000000000000
1000000000000000
1000000000000000
1000000000000000
1000000000000000
1000000000000000
1000000000000000
1000000000000000
1000000000000000
1000000000000000
1000000000000000
1000000000000000
1000000000000000
1000000000000000
1000000000000000
1000000000000000
1000000000000000
1000000000000000
1000000000000000
1000000000000000
1000000000000000
1000000000000000
1000000000000000
1000000000000000
1000000000000000
1000000000000000
1000000000000000
1000000000000000
1000000000000000
1000000000000000
1000000000000000
1000000000000000
1000000000000000
1000000000000000
1000000000000000
1000000000000000
1000000000000000
1000000000000000
1000000000000000
1000000000000000
1000000000000000
1000000000000000
1000000000000000
1000000000000000
1000000000000000
1000000000000000
1000000000000000
1000000000000000
1000000000000000
1000000000000000
1000000000000000
1000000000000000
1000000000000000
1000000000000000
1000000000000000
1000000000000000
1000000000000000
1000000000000000
1000000000000000
1000000000000000
1000000000000000
1000000000000000
1000000000000000
1000000000000000
1000000000000000
1000000000000000
1000000000000000
1000000000000000
1000000000000000
1000000000000000
1000000000000000
1000000000000000
1000000000000000
1000000000000000
1000000000000000
1000000000000000
1000000000000000
1000000000000000
1000000000000000
1000000000000000
1000000000000000
1000000000000000
1000000000000000
1000000000000000
1000000000000000
1000000000000000
1000000000000000
1000000000000000
1000000000000000
1000000000000000
1000000000000000
1000000000000000
1000000000000000
1000000000000000
1000000000000000
1000000000000000
1000000000000000
1000000000000000
1000000000000000
1000000000000000
1000000000000000
1000000000000000
1000000000000000
1000000000000000
1000000000000000
1000000000000000
1000000000000000
1000000000000000
1000000000000000
1000000000000000
1000000000000000
1000000000000000
1000000000000000
1000000000000000
1000000000000000
1000000000000000
1000000000000000
1000000000000000
1000000000000000
1000000000000000
1000000000000000
1000000000000000
1000000000000000
1000000000000000
1000000000000000
1000000000000000
1000000000000000
1000000000000000
1000000000000000
1000000000000000
1000000000000000
1000000000000000
1000000000000000
1000000000000000
1000000000000000
1000000000000000
1000000000000000
1000000000000000
1000000000000000
1000000000000000
1000000000000000
1000000000000000
1000000000000000
1000000000000000
1000000000000000
1000000000000000
1000000000000000
1000000000000000
1000000000000000
1000000000000000
1000000000000000
1000000000000000
1000000000000000
1000000000000000
1000000000000000
1000000000000000
1000000000000000
1000000000000000
1000000000000000
1000000000000000
1000000000000000
1000000000000000
1000000000000000
1000000000000000
1000000000000000
1000000000000000
1000000000000000
1000000000000000
1000000000000000
1000000000000000
1000000000000000
1000000000000000
1000000000000000
1000000000000000
1000000000000000
1000000000000000
1000000000000000
1000000000000000
1000000000000000
1000000000000000
1000000000000000
1000000000000000
1000000000000000
1000000000000000
1000000000000000
1000000000000000
1000000000000000
1000000000000000
1000000000000000
1000000000000000
1000000000000000
1000000000000000
1000000000000000
1000000000000000
1000000000000000
1000000000000000
1000000000000000
1000000000000000
1000000000000000
1000000000000000
1000000000000000
1000000000000000
1000000000000000
1000000000000000
1000000000000000
1000000000000000
1000000000000000
1000000000000000
1000000000000000
1000000000000000
1000000000000000
1000000000000000
1000000000000000
1000000000000000
1000000000000000
1000000000000000
1000000000000000
1000000000000000
1000000000000000
1000000000000000
1000000000000000
1000000000000000
1000000000000000
1000000000000000
1000000000000000
1000000000000000
1000000000000000
1000000000000000
1000000000000000
1000000000000000
1000000000000000
1000000000000000
1000000000000000
1000000000000000
1000000000000000
1000000000000000
1000000000000000
1000000000000000
1000000000000000
1000000000000000
1000000000000000
1000000000000000
1000000000000000
1000000000000000
1000000000000000
1000000000000000
1000000000000000
1000000000000000
1000000000000000
1000000000000000
1000000000000000
1000000000000000
1000000000000000
1000000000000000
1000000000000000
1000000000000000
1000000000000000
1000000000000000
1000000000000000
1000000000000000
1000000000000000
1000000000000000
1000000000000000
1000000000000000
1000000000000000
1000000000000000
1000000000000000
1000000000000000
1000000000000000
1000000000000000
1000000000000000
1000000000000000
1000000000000000
1000000000000000
1000000000000000
1000000000000000
1000000000000000
1000000000000000
1000000000000000
1000000000000000
1000000000000000
1000000000000000
1000000000000000
1000000000000000
1000000000000000
1000000000000000
