memory_initialization_radix=16;
memory_initialization_vector=
FFFF,
FFFF,
FFFF,
FFFF,
FFFF,
FFFF,
FFFF,
FFFF,
FFFF,
FFFF,
FFFF,
FFFF,
FFFF,
FFFF,
FFFF,
FFFF,
FFFF,
FFFF,
FFFF,
FFFF,
FFFF,
FFFF,
FFFF,
FFFF,
FFFF,
FFFF,
FFFF,
FFFF,
FFFF,
FFFF,
FFFF,
FFFF,
FFFF,
FFFF,
FFFF,
FFFF,
FFFF,
FFFF,
FFFF,
FFFF,
FFFF,
FFFF,
FFFF,
FFFF,
FFFF,
FFFF,
FFFF,
FFFF,
FFFF,
FFFF,
FFFF,
FFFF,
FFFF,
FFFF,
FFFF,
FFFF,
FFFF,
FFFF,
FFFF,
FFFF,
FFFF,
FFFF,
FFFF,
FFFF,
FFFF,
FFFF,
FFFF,
FFFF,
FFFF,
FFFF,
FFFF,
FFFF,
FFFF,
FFFF,
FFFF,
FFFF,
FFFF,
FFFF,
FFFF,
FFFF,
FFFF,
FFFF,
FFFF,
FFFF,
FFFF,
FFFF,
FFFF,
FFFF,
FFFF,
FFFF,
FFFF,
FFFF,
FFFF,
FFFF,
FFFF,
FFFF,
FFFF,
FFFF,
FFFF,
FFFF,
FFFF,
FFFF,
FFFF,
FFFF,
FFFF,
FFFF,
FFFF,
FFFF,
FFFF,
FFFF,
FFFF,
FFFF,
FFFF,
FFFF,
FFFF,
FFFF,
FFFF,
FFFF,
FFFF,
FFFF,
FFFF,
FFFF,
FFFF,
FFFF,
FFFF,
FFFF,
FFFF,
FFFF,
FFFF,
FFFF,
FFFF,
FFFF,
FFFF,
FFFF,
FFFF,
FFFF,
FFFF,
FFFF,
FFFF,
FFFF,
FFFF,
FFFF,
FFFF,
FFFF,
FFFF,
FFFF,
FFFF,
FFFF,
FFFF,
FFFF,
FFFF,
FFFF,
FFFF,
FFFF,
FFFF,
FFFF,
FFFF,
FFFF,
FFFF,
FFFF,
FFFF,
FFFF,
FFFF,
FFFF,
FFFF,
FFFF,
FFFF,
FFFF,
FFFF,
FFFF,
FFFF,
FFFF,
FFFF,
FFFF,
FFFF,
FFFF,
FFFF,
FFFF,
FFFF,
FFFF,
FFFF,
FFFF,
FFFF,
FFFF,
FFFF,
FFFF,
FFFF,
FFFF,
FFFF,
FFFF,
FFFF,
FFFF,
FFFF,
FFFF,
FFFF,
FFFF,
FFFF,
FFFF,
FFFF,
FFFF,
FFFF,
FFFF,
FFFF,
FFFF,
FFFF,
FFFF,
FFFF,
FFFF,
FFFF,
FFFF,
FFFF,
FFFF,
FFFF,
FFFF,
FFFF,
FFFF,
FFFF,
FFFF,
FFFF,
FFFF,
FFFF,
FFFF,
FFFF,
FFFF,
FFFF,
FFFF,
FFFF,
FFFF,
FFFF,
FFFF,
FFFF,
FFFF,
FFFF,
FFFF,
FFFF,
FFFF,
FFFF,
FFFF,
FFFF,
FFFF,
FFFF,
FFFF,
FFFF,
FFFF,
FFFF,
FFFF,
FFFF,
FFFF,
FFFF,
FFFF,
FFFF,
FFFF,
FFFF,
FFFF,
FFFF,
FFFF,
FFFF,
FFFF,
FFFF,
FFFF,
FFFF,
FFFF,
FFFF,
FFFF,
FFFF,
FFFF,
FFFF,
FFFF,
FFFF,
FFFF,
FFFF,
FFFF,
FFFF,
FFFF,
FFFF,
FFFF,
FFFF,
FFFF,
FFFF,
FFFF,
FFFF,
FFFF,
FFFF,
FFFF,
FFFF,
FFFF,
FFFF,
FFFF,
FFFF,
FFFF,
FFFF,
FFFF,
FFFF,
FFFF,
FFFF,
FFFF,
FFFF,
FFFF,
FFFF,
FFFF,
FFFF,
FFFF,
FFFF,
FFFF,
FFFF,
FFFF,
FFFF,
FFFF,
FFFF,
FFFF,
FFFF,
FFFF,
FFFF,
FFFF,
FFFF,
FFFF,
FFFF,
FFFF,
FFFF,
FFFF,
FFFF,
FFFF,
FFFF,
FFFF,
FFFF,
FFFF,
FFFF,
FFFF,
FFFF,
FFFF,
FFFF,
FFFF,
FFFF,
FFFF,
FFFF,
FFFF,
FFFF,
FFFF,
FFFF,
FFFF,
FFFF,
FFFF,
FFFF,
FFFF,
FFFF,
FFFF,
FFFF,
FFFF,
FFFF,
FFFF,
FFFF,
FFFF,
FFFF,
FFFF,
FFFF,
FFFF,
FFFF,
FFFF,
FFFF,
FFFF,
FFFF,
FFFF,
FFFF,
FFFF,
FFFF,
FFFF,
FFFF,
FFFF,
FFFF,
FFFF,
FFFF,
FFFF,
FFFF,
FFFF,
FFFF,
FFFF,
FFFF,
FFFF,
FFFF,
FFFF,
FFFF,
FFFF,
FFFF,
FFFF,
FFFF,
FFFF,
FFFF,
FFFF,
FFFF,
FFFF,
FFFF,
FFFF,
FFFF,
FFFF,
FFFF,
FFFF,
FFFF,
FFFF,
FFFF,
FFFF,
FFFF,
FFFF,
FFFF,
FFFF,
FFFF,
FFFF,
FFFF,
FFFF,
FFFF,
FFFF,
FFFF,
FFFF,
FFFF,
FFFF,
FFFF,
FFFF,
FFFF,
FFFF,
FFFF,
FFFF,
FFFF,
FFFF,
FFFF,
FFFF,
FFFF,
FFFF,
FFFF,
FFFF,
FFFF,
FFFF,
FFFF,
FFFF,
FFFF,
FFFF,
FFFF,
FFFF,
FFFF,
FFFF,
FFFF,
FFFF,
FFFF,
FFFF,
FFFF,
FFFF,
FFFF,
FFFF,
FFFF,
FFFF,
FFFF,
FFFF,
FFFF,
FFFF,
FFFF,
FFFF,
FFFF,
FFFF,
FFFF,
FFFF,
FFFF,
FFFF,
FFFF,
FFFF,
FFFF,
FFFF,
FFFF,
FFFF,
FFFF,
FFFF,
FFFF,
FFFF,
FFFF,
FFFF,
FFFF,
FFFF,
FFFF,
FFFF,
FFFF,
FFFF,
FFFF,
FA84,
EF85,
E52F,
DB74,
D24C,
C9AA,
C187,
B9DA,
B29B,
ABC3,
A54A,
9F2C,
9961,
93E5,
8EB3,
89C7,
851B,
80AB,
7C76,
7876,
74A8,
710B,
6D9A,
6A53,
6735,
643C,
6166,
5EB2,
5C1E,
59A7,
574D,
550E,
52E8,
50DA,
4EE3,
4D02,
4B35,
497B,
47D4,
463F,
44BA,
4346,
41E0,
4089,
3F3F,
3E02,
3CD2,
3BAE,
3A95,
3987,
3883,
378A,
3699,
35B2,
34D3,
33FC,
332D,
3266,
31A6,
30ED,
303B,
2F8F,
2EE9,
2E49,
2DAE,
2D19,
2C89,
2BFE,
2B78,
2AF7,
2A7A,
2A01,
298C,
291B,
28AE,
2845,
27DF,
277D,
271E,
26C2,
2669,
2613,
25C0,
256F,
2522,
24D6,
248E,
2447,
2403,
23C1,
2381,
2344,
2308,
22CE,
2296,
2260,
222C,
21F9,
21C8,
2199,
216B,
213F,
2114,
20EA,
20C2,
209B,
2076,
2052,
202E,
200C,
1FEB,
1FCC,
1FAD,
1F8F,
1F72,
1F57,
1F3C,
1F22,
1F09,
1EF0,
1ED9,
1EC2,
1EAC,
1E97,
1E83,
1E6F,
1E5C,
1E4A,
1E38,
1E27,
1E16,
1E06,
1DF7,
1DE8,
1DDA,
1DCC,
1DBF,
1DB2,
1DA5,
1D99,
1D8E,
1D83,
1D78,
1D6D,
1D63,
1D5A,
1D50,
1D48,
1D3F,
1D37,
1D2F,
1D27,
1D1F,
1D18,
1D11,
1D0A,
1D04,
1CFE,
1CF8,
1CF2,
1CEC,
1CE7,
1CE2,
1CDD,
1CD8,
1CD3,
1CCE,
1CCA,
1CC6,
1CC1,
1CBD,
1CB9,
1CB5,
1CB2,
1CAE,
1CAA,
1CA7,
1CA4,
1CA0,
1C9D,
1C9A,
1C97,
1C93,
1C90,
1C8D,
1C8A,
1C87,
1C85,
1C82,
1C7F,
1C7C,
1C79,
1C76,
1C73,
1C71,
1C6E,
1C6B,
1C68,
1C65,
1C62,
1C5F,
1C5C,
1C5A,
1C57,
1C54,
1C51,
1C4E,
1C4A,
1C47,
1C44,
1C41,
1C3E,
1C3B,
1C37,
1C34,
1C30,
1C2D,
1C29,
1C26,
1C22,
1C1F,
1C1B,
1C17,
1C13,
1C0F,
1C0B,
1C07,
1C03,
1BFF,
1BFB,
1BF7,
1BF2,
1BEE,
1BE9,
1BE5,
1BE0,
1BDC,
1BD7,
1BD2,
1BCD,
1BC8,
1BC3,
1BBE,
1BB9,
1BB4,
1BAF,
1BAA,
1BA4,
1B9F,
1B99,
1B94,
1B8E,
1B89,
1B83,
1B7D,
1B77,
1B71,
1B6B,
1B65,
1B5F,
1B59,
1B53,
1B4C,
1B46,
1B40,
1B39,
1B33,
1B2C,
1B26,
1B1F,
1B18,
1B11,
1B0B,
1B04,
1AFD,
1AF6,
1AEF,
1AE8,
1AE1,
1AD9,
1AD2,
1ACB,
1AC4,
1ABC,
1AB5,
1AAD,
1AA6,
1A9E,
1A97,
1A8F,
1A87,
1A80,
1A78,
1A70,
1A68,
1A60,
1A58,
1A51,
1A49,
1A41,
1A38,
1A30,
1A28,
1A20,
1A18,
1A10,
1A07,
19FF,
19F7,
19EE,
19E6,
19DE,
19D5,
19CD,
19C4,
19BC,
19B3,
19AA,
19A2,
1999,
1990,
1988,
197F,
1976,
196D,
1964,
195C,
1953,
194A,
1941,
1938,
192F,
1926,
191D,
1914,
190A,
1901,
18F8,
18EF,
18E6,
18DC,
18D3,
18CA,
18C0,
18B7,
18AE,
18A4,
189B,
1891,
1888,
187E,
1874,
186B,
1861,
1858,
184E,
1844,
183A,
1830,
1827,
181D,
1813,
1809,
17FF,
17F5,
17EB,
17E1,
17D7,
17CD,
17C2,
17B8,
17AE,
17A4,
1799,
178F,
1784,
177A,
1770,
1765,
175A,
1750,
1745,
173B,
1730,
1725,
171A,
170F,
1704,
16FA,
16EF,
16E4,
16D9,
16CD,
16C2,
16B7,
16AC,
16A1,
1695,
168A,
167E,
1673,
1667,
165C,
1650,
1645,
1639,
162D,
1621,
1616,
160A,
15FE,
15F2,
15E6,
15DA,
15CE,
15C2,
15B5,
15A9,
159D,
1590,
1584,
1578,
156B,
155F,
1552,
1546,
1539,
152C,
1520,
1513,
1506,
14F9,
14EC,
14DF,
14D2,
14C5,
14B8,
14AB,
149E,
1491,
144C,
1440,
1434,
1428,
141D,
1411,
1405,
13FA,
13EE,
13E2,
13D7,
13CB,
13C0,
13B4,
13A9,
139D,
1392,
1387,
137B,
1370,
1365,
1359,
134E,
1343,
1338,
132C,
1321,
1316,
130B,
1300,
12F5,
12EA,
12DF,
12D4,
12C9,
12BE,
12B3,
12A8,
129D,
1292,
1287,
127C,
1272,
1267,
125C,
1251,
1247,
123C,
1231,
1226,
121C,
1211,
1207,
11FC,
11F1,
11E7,
11DC,
11D2,
11C7,
11BD,
11B2,
11A8,
119E,
1193,
1189,
117E,
1174,
116A,
1160,
1155,
114B,
1141,
1137,
112C,
1122,
1118,
110E,
1104,
10FA,
10F0,
10E5,
10DB,
10D1,
10C7,
10BD,
10B3,
10A9,
109F,
1096,
108C,
1082,
1078,
106E,
1064,
105A,
1051,
1047,
103D,
1033,
102A,
1020,
1016,
100C,
1003,
0FF9,
0FEF,
0FE6,
0FDC,
0FD3,
0FC9,
0FC0,
0FB6,
0FAD,
0FA3,
0F9A,
0F90,
0F87,
0F7D,
0F74,
0F6A,
0F61,
0F58,
0F4E,
0F45,
0F3C,
0F32,
0F29,
0F20,
0F17,
0F0D,
0F04,
0EFB,
0EF2,
0EE9,
0EDF,
0ED6,
0ECD,
0EC4,
0EBB,
0EB2,
0EA9,
0EA0,
0E97,
0E8E,
0E85,
0E7C,
0E73,
0E6A,
0E61,
0E58,
0E4F,
0E46,
0E3D,
0E34,
0E2C,
0E23,
0E1A,
0E11,
0E08,
0E00,
0DF7,
0DEE,
0DE5,
0DDD,
0DD4,
0DCB,
0DC3,
0DBA,
0DB1,
0DA9,
0DA0,
0D98,
0D8F,
0D87,
0D7E,
0D75,
0D6D,
0D64,
0D5C,
0D54,
0D4B,
0D43,
0D3A,
0D32,
0D29,
0D21,
0D19,
0D10,
0D08,
0D00,
0CF8,
0CEF,
0CE7,
0CDF,
0CD6,
0CCE,
0CC6,
0CBE,
0CB6,
0CAE,
0CA5,
0C9D,
0C95,
0C8D,
0C85,
0C7D,
0C75,
0C6D,
0C65,
0C5D,
0C55,
0C4D,
0C45,
0C3D,
0C35,
0C2D,
0C25,
0C1D,
0C15,
0C0D,
0C06,
0BFE,
0BF6,
0BEE,
0BE6,
0BDF,
0BD7,
0BCF,
0BC7,
0BC0,
0BB8,
0BB0,
0BA9,
0BA1,
0B99,
0B92,
0B8A,
0B82,
0B7B,
0B73,
0B6C,
0B64,
0B5D,
0B55,
0B4E,
0B46,
0B3F,
0B37,
0B30,
0B28,
0B21,
0B1A,
0B12,
0B0B,
0B03,
0AFC,
0AF5,
0AED,
0AE6,
0ADF,
0AD8,
0AD0,
0AC9,
0AC2,
0ABB,
0AB3,
0AAC,
0AA5,
0A9E,
0A97,
0A90,
0A89,
0A82,
0A7A,
0A73,
0A6C,
0A65,
0A5E,
0A57,
0A50,
0A49,
0A42,
0A3B,
0A34,
0A2D,
0A27,
0A20,
0A19,
0A12,
0A0B,
0A04,
09FD,
09F7,
09F0,
09E9,
09E2,
09DB,
09D5,
09CE,
09C7,
09C1,
09BA,
09B3,
09AD,
09A6,
099F,
0999,
0992,
098C,
0985,
097E,
0978,
0971,
096B,
0964,
095E,
0957,
0951,
094A,
0944,
093E,
0937,
0931,
092A,
0924,
091E,
0917,
0911,
090B,
0904,
08FE,
08F8,
08F2,
08EB,
08E5,
08DF,
08D9,
08D3,
08CC,
08C6,
08C0,
08BA,
08B4,
08AE,
08A8,
08A2,
089C,
0895,
088F,
0889,
0883,
087D,
0877,
0871,
086C,
0866,
0860,
085A,
0854,
084E,
0848,
0842,
083C,
0837,
0831,
082B,
0825,
081F,
081A,
0814,
080E,
0808,
0803,
07FD,
07F7,
07F2,
07EC,
07E6,
07E1,
07DB,
07D5,
07D0,
07CA,
07C5,
07BF,
07BA,
07B4,
07AF,
07A9,
07A4,
079E,
0799,
0793,
078E,
0788,
0783,
077E,
0778,
0773,
076D,
0768,
0763,
075D,
0758,
0753,
074E,
0748,
0743,
073E,
0739,
0733,
072E,
0729,
0724,
071F,
0719,
0714,
070F,
070A,
0705,
0700,
06FB,
06F6,
06F1,
06EC,
06E7,
06E2,
06DD,
06D8,
06D3,
06CE,
06C9,
06C4,
06BF,
06BA,
06B5,
06B0,
06AB,
06A6,
06A1,
069D,
0698,
0693,
068E,
0689,
0685,
0680,
067B,
0676,
0672,
066D,
0668,
0663,
065F,
065A,
0655,
0651,
064C,
0647,
0643,
063E,
063A,
0635,
0631,
062C,
0627,
0623,
061E,
061A,
0615,
0611,
060C,
0608,
0603,
05FF,
05FB,
05F6,
05F2,
05ED,
05E9,
05E5,
05E0,
05DC,
05D8,
05D3,
05CF,
05CB,
05C6,
05C2,
05BE,
05B9,
05B5,
05B1,
05AD,
05A9,
05A4,
05A0,
059C,
0598,
0594,
058F,
058B,
0587,
0583,
057F,
057B,
0577,
0573,
056F,
056B,
0567,
0563,
055F,
055B,
0557,
0553,
054F,
054B,
0547,
0543,
053F,
053B,
0537,
0533,
052F,
052B,
0527,
0523,
0520,
051C,
0518,
0514,
0510,
050D,
0509,
0505,
0501,
04FD,
04FA,
04F6,
04F2,
04EE,
04EB,
04E7,
04E3,
04E0,
04DC,
04D8,
04D5,
04D1,
04CD,
04CA,
04C6,
04C3,
04BF,
04BB,
04B8,
04B4,
04B1,
04AD,
04AA,
04A6,
04A3,
049F,
049C,
0498,
0495,
0491,
048E,
048A,
0487,
0484,
0480,
047D,
0479,
0476,
0473,
046F,
046C,
0468,
0465,
0462,
045E,
045B,
0458,
0455,
0451,
044E,
044B,
0447,
0444,
0441,
043E,
043A,
0437,
0434,
0431,
042E,
042A,
0427,
0424,
0421,
041E,
041B,
0418,
0414,
0411,
040E,
040B,
0408,
0405,
0402,
03FF,
03FC,
03F9,
03F6,
03F3,
03F0,
03ED,
03EA,
03E7,
03E4,
03E1,
03DE,
03DB,
03D8,
03D5,
03D2,
03CF,
03CC,
03C9,
03C6,
03C3,
03C1,
03BE,
03BB,
03B8,
03B5,
03B2,
03AF,
03AD,
03AA,
03A7,
03A4,
03A1,
039F,
039C,
0399,
0396,
0393,
0391,
038E,
038B,
0389,
0386,
0383,
0380,
037E,
037B,
0378,
0376,
0373,
0370,
036E,
036B,
0368,
0366,
0363,
0360,
035E,
035B,
0359,
0356,
0354,
0351,
034E,
034C,
0349,
0347,
0344,
0342,
033F,
033D,
033A,
0338,
0335,
0333,
0330,
032E,
032B,
0329,
0326,
0324,
0321,
031F,
031D,
031A,
0318,
0315,
0313,
0311,
030E,
030C,
0309,
0307,
0305,
0302,
0300,
02FE,
02FB,
02F9,
02F7,
02F4,
02F2,
02F0,
02EE,
02EB,
02E9,
02E7,
02E4,
02E2,
02E0,
02DE,
02DB,
02D9,
02D7,
02D5,
02D3,
02D0,
02CE,
02CC,
02CA,
02C8,
02C5,
02C3,
02C1,
02BF,
02BD,
02BB,
02B8,
02B6,
02B4,
02B2,
02B0,
02AE,
02AC,
02AA,
02A8,
02A5,
02A3,
02A1,
029F,
029D,
029B,
0299,
0297,
0295,
0293,
0291,
028F,
028D,
028B,
0289,
0287,
0285,
0283,
0281,
027F,
027D,
027B,
0279,
0277,
0275,
0273,
0271,
026F,
026D,
026B,
026A,
0268,
0266,
0264,
0262,
0260,
025E,
025C,
025A,
0259,
0257,
0255,
0253,
0251,
024F,
024D,
024C,
024A,
0248,
0246,
0244,
0242,
0241,
023F,
023D,
023B,
023A,
0238,
0236,
0234,
0232,
0231,
022F,
022D,
022B,
022A,
0228,
0226,
0225,
0223,
0221,
021F,
021E,
021C,
021A,
0219,
0217,
0215,
0214,
0212,
0210,
020F,
020D,
020B,
020A,
0208,
0206,
0205,
0203,
0201,
0200,
01FE,
01FD,
01FB,
01F9,
01F8,
01F6,
01F5,
01F3,
01F1,
01F0,
01EE,
01ED,
01EB,
01EA,
01E8,
01E7,
01E5,
01E3,
01E2,
01E0,
01DF,
01DD,
01DC,
01DA,
01D9,
01D7,
01D6,
01D4,
01D3,
01D1,
01D0,
01CE,
01CD,
01CB,
01CA,
01C8,
01C7,
01C6,
01C4,
01C3,
01C1,
01C0,
01BE,
01BD,
01BB,
01BA,
01B9,
01B7,
01B6,
01B4,
01B3,
01B2,
01B0,
01AF,
01AD,
01AC,
01AB,
01A9,
01A8,
01A7,
01A5,
01A4,
01A2,
01A1,
01A0,
019E,
019D,
019C,
019A,
0199,
0198,
0196,
0195,
0194,
0192,
0191,
0190,
018F,
018D,
018C,
018B,
0189,
0188,
0187,
0186,
0184,
0183,
0182,
0181,
017F,
017E,
017D,
017C,
017A,
0179,
0178,
0177,
0175,
0174,
0173,
0172,
0170,
016F,
016E,
016D,
016C,
016A,
0169,
0168,
0167,
0166,
0165,
0163,
0162,
0161,
0160,
015F,
015E,
015C,
015B,
015A,
0159,
0158,
0157,
0155,
0154,
0153,
0152,
0151,
0150,
014F,
014E,
014C,
014B,
014A,
0149,
0148,
0147,
0146,
0145,
0144,
0143,
0142,
0140,
013F,
013E,
013D,
013C,
013B,
013A,
0139,
0138,
0137,
0136,
0135,
0134,
0133,
0132,
0131,
0130,
012F,
012E,
012D,
012C,
012B,
012A,
0129,
0128,
0127,
0126,
0125,
0124,
0123,
0122,
0121,
0120,
011F,
011E,
011D,
011C,
011B,
011A,
0119,
0118,
0117,
0116,
0115,
0114,
0113,
0112,
0111,
0110,
010F,
010E,
010E,
010D,
010C,
010B,
010A,
0109,
0108,
0107,
0106,
0105,
0104,
0104,
0103,
0102,
0101,
0100,
00FF,
00FE,
00FD,
00FC,
00FC,
00FB,
00FA,
00F9,
00F8,
00F7,
00F6,
00F6,
00F5,
00F4,
00F3,
00F2,
00F1,
00F0,
00F0,
00EF,
00EE,
00ED,
00EC,
00EB,
00EB,
00EA,
00E9,
00E8,
00E7,
00E7,
00E6,
00E5,
00E4,
00E3,
00E3,
00E2,
00E1,
00E0,
00DF,
00DF,
00DE,
00DD,
00DC,
00DB,
00DB,
00DA,
00D9,
00D8,
00D8,
00D7,
00D6,
00D5,
00D5,
00D4,
00D3,
00D2,
00D2,
00D1,
00D0,
00CF,
00CF,
00CE,
00CD,
00CC,
00CC,
00CB,
00CA,
00CA,
00C9,
00C8,
00C7,
00C7,
00C6,
00C5,
00C5,
00C4,
00C3,
00C3,
00C2,
00C1,
00C0,
00C0,
00BF,
00BE,
00BE,
00BD,
00BC,
00BC,
00BB,
00BA,
00BA,
00B9,
00B8,
00B8,
00B7,
00B6,
00B6,
00B5,
00B4,
00B4,
00B3,
00B2,
00B2,
00B1,
00B1,
00B2,
00B2,
00B1,
00B0,
00B0,
00AF,
00AE,
00AE,
00AD,
00AD,
00AC,
00AB,
00AB,
00AA,
00A9,
00A9,
00A8,
00A8,
00A7,
00A6,
00A6,
00A5,
00A5,
00A4,
00A3,
00A3,
00A2,
00A2,
00A1,
00A0,
00A0,
009F,
009F,
009E,
009D,
009D,
009C,
009C,
009B,
009A,
009A,
0099,
0099,
0098,
0098,
0097,
0096,
0096,
0095,
0095,
0094,
0094,
0093,
0092,
0092,
0091,
0091,
0090,
0090,
008F,
008E,
008E,
008D,
008D,
008C,
008C,
008B,
008A,
008A,
0089,
0089,
0088,
0088,
0087,
0087,
0086,
0086,
0085,
0084,
0084,
0083,
0083,
0082,
0082,
0081,
0081,
0080,
0080,
007F,
007F,
007E,
007D,
007D,
007C,
007C,
007B,
007B,
007A,
007A,
0079,
0079,
0078,
0078,
0077,
0077,
0076,
0076,
0075,
0075,
0074,
0074,
0073,
0073,
0072,
0072,
0071,
0071,
0070,
0070,
006F,
006F,
006E,
006E,
006D,
006D,
006C,
006C,
006B,
006B,
006A,
006A,
0069,
0069,
0068,
0068,
0068,
0067,
0067,
0066,
0066,
0065,
0065,
0064,
0064,
0063,
0063,
0062,
0062,
0062,
0061,
0061,
0060,
0060,
005F,
005F,
005E,
005E,
005E,
005D,
005D,
005C,
005C,
005B,
005B,
005B,
005A,
005A,
0059,
0059,
0059,
0058,
0058,
0057,
0057,
0056,
0056,
0056,
0055,
0055,
0054,
0054,
0054,
0053,
0053,
0052,
0052,
0052,
0051,
0051,
0050,
0050,
0050,
004F,
004F,
004E,
004E,
004E,
004D,
004D,
004C,
004C,
004C,
004B,
004B,
004B,
004A,
004A,
0049,
0049,
0049,
0048,
0048,
0047,
0047,
0047,
0046,
0046,
0046,
0045,
0045,
0044,
0044,
0044,
0043,
0043,
0043,
0042,
0042,
0041,
0041,
0041,
0040,
0040,
0040,
003F,
003F,
003E,
003E,
003E,
003D,
003D,
003C,
003C,
003C,
003B,
003B,
003B,
003A,
003A,
0039,
0039,
0039,
0038,
0038,
0037,
0037,
0037,
0036,
0036,
0036,
0035,
0035,
0034,
0034,
0034,
0033,
0033,
0032,
0032,
0032,
0031,
0031,
0030,
0030,
0030,
002F,
002F,
002E,
002E,
002E,
002D,
002D,
002C,
002C,
002B,
002B,
002B,
002A,
002A,
0029,
0029,
0029,
0028,
0028,
0027,
0027,
0026,
0026,
0026,
0025,
0025,
0024,
0024,
0023,
0023,
0023,
0022,
0022,
0021,
0021,
0021,
0020,
0020,
001F,
001F,
001E,
001E,
001E,
001D,
001D,
001C,
001C,
001B,
001B,
001B,
001A,
001A,
0019,
0019,
0018,
0018,
0018,
0017,
0017,
0016,
0016,
0016,
0015,
0015,
0014,
0014,
0014,
0013,
0013,
0012,
0012,
0012,
0011,
0011,
0010,
0010,
0010,
000F,
000F,
000F,
000E,
000E,
000E,
000D,
000D,
000D,
000C,
000C,
000C,
000B,
000B,
000B,
000A,
000A,
000A,
0009,
0009,
0009,
0009,
0008,
0008,
0008,
0008,
0007,
0007,
0007,
0007,
0006,
0006,
0006,
0006,
0005,
0005,
0005,
0005,
0005,
0004,
0004,
0004,
0004,
0004,
0003,
0003,
0003,
0003,
0003,
0003,
0003,
0002,
0002,
0002,
0002,
0002,
0002,
0002,
0002,
0002,
0001,
0001,
0001,
0001,
0001,
0001,
0001,
0001,
0001,
0001,
0001,
0001,
0000,
0000,
0000,
0000,
0000,
0000,
0000,
0000,
0000,
0000,
0000,
0000,
0000,
0000,
0000,
0000,
0000,
0000,
0000,
0000,
0000,
0000,
0000,
0000,
0000,
0000,
0000,
0000,
0000,
0000,
0000,
0000,
0000,
0000,
0000,
0000,
0000,
0000,
0000,
0000,
0000,
0000,
0000,
0000,
0000,
0000,
0000,
0000,
0000,
0000,
0000,
0000,
0000,
0000,
0000,
0000,
0000,
0000,
0000,
0000,
0000,
0000,
0000,
0000,
0000,
0000,
0000,
0000,
0000,
0000,
0000,
0000,
0000,
0000,
0000,
0000,
0000,
0000,
0000,
0000,
0000,
0000,
0000,
0000,
0000,
0000,
0000,
0000,
0000,
0000,
0000,
0000,
0000,
0000,
0000,
0000,
0000,
0000,
0000,
0000,
0000,
0000,
0000,
0000,
0000,
0000,
0000,
0000,
0000,
0000,
0000,
0000,
0000,
0000,
0000,
0000,
0000,
0000,
0000,
0000,
0000,
0000,
0000,
0000,
0000,
0000,
0000,
0000,
0000,
0000,
0000,
0000,
0000,
0000,
0000,
0000,
0000,
0000,
0000,
0000,
0000,
0000,
0000,
0000,
0000,
0000,
0000,
0000,
0000,
0000,
0000,
0000,
0000,
0000,
0000,
0000,
0000,
0000,
0000,
0000,
0000,
0000,
0000,
0000,
0000,
0000,
0000,
0000,
0000,
0000,
0000,
0000,
0000,
0000,
0000,
0000,
0000,
0000,
0000,
0000,
0000,
0000,
0000,
0000,
0000,
0000,
0000,
0000,
0000,
0000,
0000,
0000,
0000,
0000,
0000,
0000,
0000,
0000,
0000,
0000,
0000,
0000,
0000,
0000,
0000,
0000,
0000,
0000,
0000,
0000,
0000,
0000,
0000,
0000,
0000,
0000,
0000,
0000,
0000,
0000,
0000,
0000,
0000,
0000,
0000,
0000,
0000,
0000,
0000,
0000,
0000,
0000,
0000,
0000,
0000,
0000,
0000,
0000,
0000,
0000,
0000,
0000,
0000,
0000,
0000,
0000,
0000,
0000,
0000,
0000,
0000,
0000,
0000,
0000,
0000,
0000,
0000,
0000,
0000,
0000,
0000,
0000,
0000,
0000,
0000,
0000,
0000,
0000,
0000,
0000,
0000,
0000,
0000,
0000,
0000,
0000,
0000,
0000,
0000,
0000,
0000,
0000,
0000,
0000,
0000,
0000,
0000,
0000,
0000,
0000,
0000,
0000,
0000,
0000,
0000,
0000,
0000,
0000,
0000,
0000,
0000,
0000,
0000,
0000,
0000,
0000,
0000,
0000,
0000,
0000,
0000,
0000,
0000,
0000,
0000,
0000,
0000,
0000,
0000,
0000,
0000,
0000,
0000,
0000,
0000,
0000,
0000,
0000,
0000,
0000,
0000,
0000,
0000,
0000,
0000,
0000,
0000,
0000,
0000,
0000,
0000,
0000,
0000,
0000,
0000,
0000,
0000,
0000,
0000,
0000,
0000,
0000,
0000,
0000,
0000,
0000,
0000,
0000,
0000,
0000,
0000,
0000,
0000,
0000,
0000,
0000,
0000,
0000,
0000,
0000,
0000,
0000,
0000,
0000,
0000,
0000,
0000,
0000,
0000,
0000,
0000,
0000,
0000,
0000,
0000,
0000,
0000,
0000,
0000,
0000,
0000,
0000,
0000,
0000,
0000,
0000,
0000,
0000,
0000,
0000,
0000,
0000,
0000,
0000,
0000,
0000,
0000,
0000,
0000,
0000,
0000,
0000,
0000,
0000,
0000,
0000,
0000,
0000,
0000,
0000,
0000,
0000,
0000,
0000,
0000,
0000,
0000,
0000,
0000,
0000,
0000,
0000,
0000,
0000,
0000,
0000,
0000,
0000,
0000,
0000,
0000,
0000,
0000,
0000,
0000,
0000,
0000,
0000,
0000,
0000,
0000,
0000,
0000,
0000,
0000,
0000,
0000,
0000,
0000,
0000,
0000,
0000,
0000,
0000,
0000,
0000,
0000,
0000,
0000,
0000,
0000,
0000,
0000,
0000,
0000,
0000,
0000,
0000,
0000,
0000,
0000,
0000,
0000,
0000,
0000,
0000,
0000,
0000,
0000,
0000,
0000,
0000,
0000,
0000,
0000,
0000,
0000,
0000,
0000,
0000,
0000,
0000,
0000,
0000,
0000,
0000,
0000,
0000,
0000,
0000,
0000,
0000,
0000,
0000,
0000,
0000,
0000,
0000,
0000,
0000,
0000,
0000,
0000,
0000,
0000,
0000,
0000,
0000,
0000,
0000,
0000,
0000,
0000,
0000,
0000,
0000,
0000,
0000,
0000,
0000,
0000,
0000,
0000,
0000,
0000,
0000,
0000,
0000,
0000,
0000,
0000,
0000,
0000,
0000,
0000,
0000,
0000,
0000,
0000,
0000,
0000,
0000,
0000,
0000,
0000,
0000,
0000,
0000,
0000,
0000,
0000,
0000,
0000,
0000,
0000,
0000,
0000,
0000,
0000,
0000,
0000,
0000,
0000,
0000,
0000,
0000,
0000,
0000,
0000,
0000,
0000,
0000,
0000,
0000,
0000,
0000,
0000,
0000,
0000,
0000,
0000,
0000,
0000,
0000,
0000,
0000,
0000,
0000,
0000,
0000,
0000,
0000,
0000,
0000,
0000,
0000,
0000,
0000,
0000,
0000,
0000,
0000,
0000,
0000,
0000,
0000,
0000,
0000,
0000,
0000,
0000,
0000,
0000,
0000,
0000,
0000,
0000,
0000,
0000,
0000,
0000,
0000,
0000,
0000,
0000,
0000,
0000,
0000,
0000,
0000,
0000,
0000,
0000,
0000,
0000,
0000,
0000,
0000,
0000,
0000,
0000,
0000,
0000,
0000,
0000,
0000,
0000,
0000,
0000,
0000,
0000,
0000,
0000,
0000,
0000,
0000,
0000,
0000,
0000,
0000,
0000,
0000,
0000,
0000,
0000,
0000,
0000,
0000,
0000,
0000,
0000,
0000,
0000,
0000,
0000,
0000,
0000,
0000,
0000,
0000,
0000,
0000,
0000,
0000,
0000,
0000,
0000,
0000,
0000,
0000,
0000,
0000,
0000,
0000,
0000,
0000,
0000,
0000,
0000,
0000,
0000,
0000,
0000,
0000,
0000,
0000,
0000,
0000,
0000,
0000,
0000,
0000,
0000,
0000,
0000,
0000,
0000,
0000,
0000,
0000,
0000,
0000,
0000,
0000,
0000,
0000,
0000,
0000,
0000,
0000,
0000,
0000,
0000,
0000,
0000,
0000,
0000,
0000,
0000,
0000,
0000,
0000,
0000,
0000,
0000,
0000,
0000,
0000,
0000,
0000,
0000,
0000,
0000,
0000,
0000,
0000,
0000,
0000,
0000,
0000,
0000,
0000,
0000,
0000,
0000,
0000,
0000,
0000,
0000,
0000,
0000,
0000,
0000,
0000,
0000,
0000,
0000,
0000,
0000,
0000,
0000,
0000,
0000,
0000,
0000,
0000,
0000,
0000,
0000,
0000,
0000,
0000,
0000,
0000,
0000,
0000,
0000,
0000,
0000,
0000,
0000,
0000,
0000,
0000,
0000,
0000,
0000,
0000,
0000,
0000,
0000,
0000,
0000,
0000,
0000,
0000,
0000,
0000,
0000,
0000,
0000,
0000,
0000,
0000,
0000,
0000,
0000,
0000,
0000,
0000,
0000,
0000,
0000,
0000,
0000,
0000,
0000,
0000,
0000,
0000,
0000,
0000,
0000,
0000,
0000,
0000,
0000,
0000,
0000,
0000,
0000,
0000,
0000,
0000,
0000,
0000,
0000,
0000,
0000,
0000,
0000,
0000,
0000,
0000,
0000,
0000,
0000,
0000,
0000,
0000,
0000,
0000,
0000,
0000,
0000,
0000,
0000,
0000,
0000,
0000,
0000,
0000,
0000,
0000,
0000,
0000,
0000,
0000,
0000,
0000,
0000,
0000,
0000,
0000,
0000,
0000,
0000,
0000,
0000,
0000,
0000,
0000,
0000,
0000,
0000,
0000,
0000,
0000,
0000,
0000,
0000,
0000,
0000,
0000,
0000,
0000,
0000,
0000,
0000,
0000,
0000,
0000,
0000,
0000,
0000,
0000,
0000,
0000,
0000,
0000,
0000,
0000,
0000,
0000,
0000,
0000,
0000,
0000,
0000,
0000,
0000,
0000,
0000,
0000,
0000,
0000,
0000,
0000,
0000,
0000,
0000,
0000,
0000,
0000,
0000,
0000,
0000,
0000,
0000,
0000,
0000,
0000,
0000,
0000,
0000,
0000,
0000,
0000,
0000,
0000,
0000,
0000,
0000,
0000,
0000,
0000,
0000,
0000,
0000,
0000,
0000,
0000,
0000,
0000,
0000,
0000,
0000,
0000,
0000,
0000,
0000,
0000,
0000,
0000,
0000,
0000,
0000,
0000,
0000,
0000,
0000,
0000,
0000,
0000,
0000,
0000,
0000,
0000,
0000,
0000,
0000,
0000,
0000,
0000,
0000,
0000,
0000,
0000,
0000,
0000,
0000,
0000,
0000,
0000,
0000,
0000,
0000,
0000,
0000,
0000,
0000,
0000,
0000,
0000,
0000,
0000,
0000,
0000,
0000,
0000,
0000,
0000,
0000,
0000,
0000,
0000,
0000,
0000,
0000,
0000,
0000,
0000,
0000,
0000,
0000,
0000,
0000,
0000,
0000,
0000,
0000,
0000,
0000,
0000,
0000,
0000,
0000,
0000,
0000,
0000,
0000,
0000,
0000,
0000,
0000,
0000,
0000,
0000,
0000,
0000,
0000,
0000,
0000,
0000,
0000,
0000,
0000,
0000,
0000,
0000,
0000,
0000,
0000,
0000,
0000,
0000,
0000,
0000,
0000,
0000,
0000,
0000,
0000,
0000,
0000,
0000,
0000,
0000,
0000,
0000,
0000,
0000,
0000,
0000,
0000,
0000,
0000,
0000,
0000,
0000,
0000,
0000,
0000,
0000,
0000,
0000,
0000,
0000,
0000,
0000,
0000,
0000,
0000,
0000,
0000,
0000,
0000,
0000,
0000,
0000,
0000,
0000,
0000,
0000,
0000,
0000,
0000,
0000,
0000,
0000,
0000,
0000,
0000,
0000,
0000,
0000,
0000,
0000,
0000,
0000,
0000,
0000,
0000,
0000,
0000,
0000,
0000,
0000,
0000,
0000,
0000,
0000,
0000,
0000,
0000,
0000,
0000,
0000,
0000,
0000,
0000,
0000,
0000,
0000,
0000,
0000,
0000,
0000,
0000,
0000,
0000,
0000,
0000,
0000,
0000,
0000,
0000,
0000,
0000,
0000,
0000,
0000,
0000,
0000,
0000,
0000,
0000,
0000,
0000,
0000,
0000,
0000,
0000,
0000,
0000,
0000,
0000,
0000,
0000,
0000,
0000,
0000,
0000,
0000,
0000,
0000,
0000,
0000,
0000,
0000,
0000,
0000,
0000,
0000,
0000,
0000,
0000,
0000,
0000,
0000,
0000,
0000,
0000,
0000,
0000,
0000,
0000,
0000,
0000,
0000,
0000,
0000,
0000,
0000,
0000,
0000,
0000,
0000,
0000,
0000,
0000,
0000,
0000,
0000,
0000,
0000,
0000,
0000,
0000,
0000,
0000,
0000,
0000,
0000,
0000,
0000,
0000,
0000,
0000,
0000,
0000,
0000,
0000,
0000,
0000,
0000,
0000,
0000,
0000,
0000,
0000,
0000,
0000,
0000,
0000,
0000,
0000,
0000,
0000,
0000,
0000,
0000,
0000,
0000,
0000,
0000,
0000,
0000,
0000,
0000,
0000,
0000,
0000,
0000,
0000,
0000,
0000,
0000,
0000,
0000,
0000,
0000,
0000,
0000,
0000,
0000,
0000,
0000,
0000,
0000,
0000,
0000,
0000,
0000,
0000,
0000,
0000,
0000,
0000,
0000,
0000,
0000,
0000,
0000,
0000,
0000,
0000,
0000,
0000,
0000,
0000,
0000,
0000,
0000,
0000,
0000,
0000,
0000,
0000,
0000,
0000,
0000,
0000,
0000,
0000,
0000,
0000,
0000,
0000,
0000,
0000,
0000,
0000,
0000,
0000,
0000,
0000,
0000,
0000,
0000,
0000,
0000,
0000,
0000,
0000,
0000,
0000,
0000,
0000,
0000,
0000,
0000,
0000,
0000,
0000,
0000,
0000,
0000,
0000,
0000,
0000,
0000,
0000,
0000,
0000,
0000,
0000,
0000,
0000,
0000,
0000,
0000,
0000,
0000,
0000,
0000,
0000,
0000,
0000,
0000,
0000,
0000,
0000,
0000,
0000,
0000,
0000,
0000,
0000,
0000,
0000,
0000,
0000,
0000,
0000,
0000,
0000,
0000,
0000,
0000,
0000,
0000,
0000,
0000,
0000,
0000,
0000,
0000,
0000,
0000,
0000,
0000,
0000,
0000,
0000,
0000,
0000,
0000,
0000,
0000,
0000,
0000,
0000,
0000,
0000,
0000,
0000,
0000,
0000,
0000,
0000,
0000,
0000,
0000,
0000,
0000,
0000,
0000,
0000,
0000,
0000,
0000,
0000,
0000,
0000,
0000,
0000,
0000,
0000,
0000,
0000,
0000,
0000,
0000,
0000,
0000,
0000,
0000,
0000,
0000,
0000,
0000,
0000,
0000,
0000,
0000,
0000,
0000,
0000,
0000,
0000,
0000,
0000,
0000,
0000,
0000,
0000,
0000,
0000,
0000,
0000,
0000,
0000,
0000,
0000,
0000,
0000,
0000,
0000,
0000,
0000,
0000,
0000,
0000,
0000,
0000,
0000,
0000,
0000,
0000,
0000,
0000,
0000,
0000,
0000,
0000,
0000,
0000,
0000,
0000,
0000,
0000,
0000,
0000,
0000,
0000,
0000,
0000,
0000,
0000,
0000,
0000,
0000,
0000,
0000,
0000,
0000,
0000,
0000,
0000,
0000,
0000,
0000,
0000,
0000,
0000,
0000,
0000,
0000;